([('melody',
   '/home/anand/Videos/Tkinter_2/tkinter-project/melody_app/build/melody/melody',
   'EXECUTABLE'),
  ('libexpat.so.1', '/lib/x86_64-linux-gnu/libexpat.so.1', 'BINARY'),
  ('libz.so.1', '/lib/x86_64-linux-gnu/libz.so.1', 'BINARY'),
  ('_decimal',
   '/home/anand/venvs/kent/lib/python3.6/lib-dynload/_decimal.cpython-36m-x86_64-linux-gnu.so',
   'EXTENSION'),
  ('mmap',
   '/home/anand/venvs/kent/lib/python3.6/lib-dynload/mmap.cpython-36m-x86_64-linux-gnu.so',
   'EXTENSION'),
  ('_ctypes',
   '/home/anand/venvs/kent/lib/python3.6/lib-dynload/_ctypes.cpython-36m-x86_64-linux-gnu.so',
   'EXTENSION'),
  ('_multiprocessing',
   '/home/anand/venvs/kent/lib/python3.6/lib-dynload/_multiprocessing.cpython-36m-x86_64-linux-gnu.so',
   'EXTENSION'),
  ('resource',
   '/home/anand/venvs/kent/lib/python3.6/lib-dynload/resource.cpython-36m-x86_64-linux-gnu.so',
   'EXTENSION'),
  ('_ssl',
   '/home/anand/venvs/kent/lib/python3.6/lib-dynload/_ssl.cpython-36m-x86_64-linux-gnu.so',
   'EXTENSION'),
  ('_opcode',
   '/home/anand/venvs/kent/lib/python3.6/lib-dynload/_opcode.cpython-36m-x86_64-linux-gnu.so',
   'EXTENSION'),
  ('readline',
   '/home/anand/venvs/kent/lib/python3.6/lib-dynload/readline.cpython-36m-x86_64-linux-gnu.so',
   'EXTENSION'),
  ('termios',
   '/home/anand/venvs/kent/lib/python3.6/lib-dynload/termios.cpython-36m-x86_64-linux-gnu.so',
   'EXTENSION'),
  ('_hashlib',
   '/home/anand/venvs/kent/lib/python3.6/lib-dynload/_hashlib.cpython-36m-x86_64-linux-gnu.so',
   'EXTENSION'),
  ('_lzma',
   '/home/anand/venvs/kent/lib/python3.6/lib-dynload/_lzma.cpython-36m-x86_64-linux-gnu.so',
   'EXTENSION'),
  ('_bz2',
   '/home/anand/venvs/kent/lib/python3.6/lib-dynload/_bz2.cpython-36m-x86_64-linux-gnu.so',
   'EXTENSION'),
  ('_codecs_cn',
   '/home/anand/venvs/kent/lib/python3.6/lib-dynload/_codecs_cn.cpython-36m-x86_64-linux-gnu.so',
   'EXTENSION'),
  ('_codecs_tw',
   '/home/anand/venvs/kent/lib/python3.6/lib-dynload/_codecs_tw.cpython-36m-x86_64-linux-gnu.so',
   'EXTENSION'),
  ('_codecs_jp',
   '/home/anand/venvs/kent/lib/python3.6/lib-dynload/_codecs_jp.cpython-36m-x86_64-linux-gnu.so',
   'EXTENSION'),
  ('_codecs_hk',
   '/home/anand/venvs/kent/lib/python3.6/lib-dynload/_codecs_hk.cpython-36m-x86_64-linux-gnu.so',
   'EXTENSION'),
  ('_codecs_kr',
   '/home/anand/venvs/kent/lib/python3.6/lib-dynload/_codecs_kr.cpython-36m-x86_64-linux-gnu.so',
   'EXTENSION'),
  ('_codecs_iso2022',
   '/home/anand/venvs/kent/lib/python3.6/lib-dynload/_codecs_iso2022.cpython-36m-x86_64-linux-gnu.so',
   'EXTENSION'),
  ('_multibytecodec',
   '/home/anand/venvs/kent/lib/python3.6/lib-dynload/_multibytecodec.cpython-36m-x86_64-linux-gnu.so',
   'EXTENSION'),
  ('pygame.mixer',
   '/home/anand/venvs/kent/lib/python3.6/site-packages/pygame/mixer.cpython-36m-x86_64-linux-gnu.so',
   'EXTENSION'),
  ('_curses',
   '/home/anand/venvs/kent/lib/python3.6/lib-dynload/_curses.cpython-36m-x86_64-linux-gnu.so',
   'EXTENSION'),
  ('scipy._lib._fpumode',
   '/home/anand/venvs/kent/lib/python3.6/site-packages/scipy/_lib/_fpumode.cpython-36m-x86_64-linux-gnu.so',
   'EXTENSION'),
  ('scipy._lib._ccallback_c',
   '/home/anand/venvs/kent/lib/python3.6/site-packages/scipy/_lib/_ccallback_c.cpython-36m-x86_64-linux-gnu.so',
   'EXTENSION'),
  ('scipy._lib.messagestream',
   '/home/anand/venvs/kent/lib/python3.6/site-packages/scipy/_lib/messagestream.cpython-36m-x86_64-linux-gnu.so',
   'EXTENSION'),
  ('numpy.core._multiarray_umath',
   '/home/anand/venvs/kent/lib/python3.6/site-packages/numpy/core/_multiarray_umath.cpython-36m-x86_64-linux-gnu.so',
   'EXTENSION'),
  ('numpy.core._multiarray_tests',
   '/home/anand/venvs/kent/lib/python3.6/site-packages/numpy/core/_multiarray_tests.cpython-36m-x86_64-linux-gnu.so',
   'EXTENSION'),
  ('numpy.random.sfc64',
   '/home/anand/venvs/kent/lib/python3.6/site-packages/numpy/random/sfc64.cpython-36m-x86_64-linux-gnu.so',
   'EXTENSION'),
  ('numpy.random.philox',
   '/home/anand/venvs/kent/lib/python3.6/site-packages/numpy/random/philox.cpython-36m-x86_64-linux-gnu.so',
   'EXTENSION'),
  ('numpy.random.pcg64',
   '/home/anand/venvs/kent/lib/python3.6/site-packages/numpy/random/pcg64.cpython-36m-x86_64-linux-gnu.so',
   'EXTENSION'),
  ('numpy.random.mt19937',
   '/home/anand/venvs/kent/lib/python3.6/site-packages/numpy/random/mt19937.cpython-36m-x86_64-linux-gnu.so',
   'EXTENSION'),
  ('numpy.random.bit_generator',
   '/home/anand/venvs/kent/lib/python3.6/site-packages/numpy/random/bit_generator.cpython-36m-x86_64-linux-gnu.so',
   'EXTENSION'),
  ('numpy.random.generator',
   '/home/anand/venvs/kent/lib/python3.6/site-packages/numpy/random/generator.cpython-36m-x86_64-linux-gnu.so',
   'EXTENSION'),
  ('numpy.random.mtrand',
   '/home/anand/venvs/kent/lib/python3.6/site-packages/numpy/random/mtrand.cpython-36m-x86_64-linux-gnu.so',
   'EXTENSION'),
  ('numpy.random.entropy',
   '/home/anand/venvs/kent/lib/python3.6/site-packages/numpy/random/entropy.cpython-36m-x86_64-linux-gnu.so',
   'EXTENSION'),
  ('numpy.random.bounded_integers',
   '/home/anand/venvs/kent/lib/python3.6/site-packages/numpy/random/bounded_integers.cpython-36m-x86_64-linux-gnu.so',
   'EXTENSION'),
  ('numpy.random.common',
   '/home/anand/venvs/kent/lib/python3.6/site-packages/numpy/random/common.cpython-36m-x86_64-linux-gnu.so',
   'EXTENSION'),
  ('numpy.fft.pocketfft_internal',
   '/home/anand/venvs/kent/lib/python3.6/site-packages/numpy/fft/pocketfft_internal.cpython-36m-x86_64-linux-gnu.so',
   'EXTENSION'),
  ('numpy.linalg._umath_linalg',
   '/home/anand/venvs/kent/lib/python3.6/site-packages/numpy/linalg/_umath_linalg.cpython-36m-x86_64-linux-gnu.so',
   'EXTENSION'),
  ('numpy.linalg.lapack_lite',
   '/home/anand/venvs/kent/lib/python3.6/site-packages/numpy/linalg/lapack_lite.cpython-36m-x86_64-linux-gnu.so',
   'EXTENSION'),
  ('pygame.imageext',
   '/home/anand/venvs/kent/lib/python3.6/site-packages/pygame/imageext.cpython-36m-x86_64-linux-gnu.so',
   'EXTENSION'),
  ('pygame.fastevent',
   '/home/anand/venvs/kent/lib/python3.6/site-packages/pygame/fastevent.cpython-36m-x86_64-linux-gnu.so',
   'EXTENSION'),
  ('pygame.scrap',
   '/home/anand/venvs/kent/lib/python3.6/site-packages/pygame/scrap.cpython-36m-x86_64-linux-gnu.so',
   'EXTENSION'),
  ('pygame.mixer_music',
   '/home/anand/venvs/kent/lib/python3.6/site-packages/pygame/mixer_music.cpython-36m-x86_64-linux-gnu.so',
   'EXTENSION'),
  ('pygame.font',
   '/home/anand/venvs/kent/lib/python3.6/site-packages/pygame/font.cpython-36m-x86_64-linux-gnu.so',
   'EXTENSION'),
  ('pygame._freetype',
   '/home/anand/venvs/kent/lib/python3.6/site-packages/pygame/_freetype.cpython-36m-x86_64-linux-gnu.so',
   'EXTENSION'),
  ('pygame.transform',
   '/home/anand/venvs/kent/lib/python3.6/site-packages/pygame/transform.cpython-36m-x86_64-linux-gnu.so',
   'EXTENSION'),
  ('pygame.time',
   '/home/anand/venvs/kent/lib/python3.6/site-packages/pygame/time.cpython-36m-x86_64-linux-gnu.so',
   'EXTENSION'),
  ('pygame.overlay',
   '/home/anand/venvs/kent/lib/python3.6/site-packages/pygame/overlay.cpython-36m-x86_64-linux-gnu.so',
   'EXTENSION'),
  ('pygame.pixelarray',
   '/home/anand/venvs/kent/lib/python3.6/site-packages/pygame/pixelarray.cpython-36m-x86_64-linux-gnu.so',
   'EXTENSION'),
  ('pygame.mask',
   '/home/anand/venvs/kent/lib/python3.6/site-packages/pygame/mask.cpython-36m-x86_64-linux-gnu.so',
   'EXTENSION'),
  ('pygame.surface',
   '/home/anand/venvs/kent/lib/python3.6/site-packages/pygame/surface.cpython-36m-x86_64-linux-gnu.so',
   'EXTENSION'),
  ('pygame.pixelcopy',
   '/home/anand/venvs/kent/lib/python3.6/site-packages/pygame/pixelcopy.cpython-36m-x86_64-linux-gnu.so',
   'EXTENSION'),
  ('pygame.mouse',
   '/home/anand/venvs/kent/lib/python3.6/site-packages/pygame/mouse.cpython-36m-x86_64-linux-gnu.so',
   'EXTENSION'),
  ('pygame.key',
   '/home/anand/venvs/kent/lib/python3.6/site-packages/pygame/key.cpython-36m-x86_64-linux-gnu.so',
   'EXTENSION'),
  ('pygame.joystick',
   '/home/anand/venvs/kent/lib/python3.6/site-packages/pygame/joystick.cpython-36m-x86_64-linux-gnu.so',
   'EXTENSION'),
  ('pygame.image',
   '/home/anand/venvs/kent/lib/python3.6/site-packages/pygame/image.cpython-36m-x86_64-linux-gnu.so',
   'EXTENSION'),
  ('pygame.event',
   '/home/anand/venvs/kent/lib/python3.6/site-packages/pygame/event.cpython-36m-x86_64-linux-gnu.so',
   'EXTENSION'),
  ('pygame.draw',
   '/home/anand/venvs/kent/lib/python3.6/site-packages/pygame/draw.cpython-36m-x86_64-linux-gnu.so',
   'EXTENSION'),
  ('pygame.display',
   '/home/anand/venvs/kent/lib/python3.6/site-packages/pygame/display.cpython-36m-x86_64-linux-gnu.so',
   'EXTENSION'),
  ('pygame.cdrom',
   '/home/anand/venvs/kent/lib/python3.6/site-packages/pygame/cdrom.cpython-36m-x86_64-linux-gnu.so',
   'EXTENSION'),
  ('pygame.math',
   '/home/anand/venvs/kent/lib/python3.6/site-packages/pygame/math.cpython-36m-x86_64-linux-gnu.so',
   'EXTENSION'),
  ('pygame.bufferproxy',
   '/home/anand/venvs/kent/lib/python3.6/site-packages/pygame/bufferproxy.cpython-36m-x86_64-linux-gnu.so',
   'EXTENSION'),
  ('pygame.color',
   '/home/anand/venvs/kent/lib/python3.6/site-packages/pygame/color.cpython-36m-x86_64-linux-gnu.so',
   'EXTENSION'),
  ('pygame.surflock',
   '/home/anand/venvs/kent/lib/python3.6/site-packages/pygame/surflock.cpython-36m-x86_64-linux-gnu.so',
   'EXTENSION'),
  ('pygame.rwobject',
   '/home/anand/venvs/kent/lib/python3.6/site-packages/pygame/rwobject.cpython-36m-x86_64-linux-gnu.so',
   'EXTENSION'),
  ('pygame.rect',
   '/home/anand/venvs/kent/lib/python3.6/site-packages/pygame/rect.cpython-36m-x86_64-linux-gnu.so',
   'EXTENSION'),
  ('pygame.constants',
   '/home/anand/venvs/kent/lib/python3.6/site-packages/pygame/constants.cpython-36m-x86_64-linux-gnu.so',
   'EXTENSION'),
  ('pygame.base',
   '/home/anand/venvs/kent/lib/python3.6/site-packages/pygame/base.cpython-36m-x86_64-linux-gnu.so',
   'EXTENSION'),
  ('_tkinter',
   '/home/anand/venvs/kent/lib/python3.6/lib-dynload/_tkinter.cpython-36m-x86_64-linux-gnu.so',
   'EXTENSION'),
  ('libmpdec.so.2', '/usr/lib/x86_64-linux-gnu/libmpdec.so.2', 'BINARY'),
  ('libffi.so.6', '/usr/lib/x86_64-linux-gnu/libffi.so.6', 'BINARY'),
  ('libcrypto.so.1.1', '/usr/lib/x86_64-linux-gnu/libcrypto.so.1.1', 'BINARY'),
  ('libssl.so.1.1', '/usr/lib/x86_64-linux-gnu/libssl.so.1.1', 'BINARY'),
  ('libreadline.so.7', '/lib/x86_64-linux-gnu/libreadline.so.7', 'BINARY'),
  ('libtinfo.so.5', '/lib/x86_64-linux-gnu/libtinfo.so.5', 'BINARY'),
  ('liblzma.so.5', '/lib/x86_64-linux-gnu/liblzma.so.5', 'BINARY'),
  ('libbz2.so.1.0', '/lib/x86_64-linux-gnu/libbz2.so.1.0', 'BINARY'),
  ('libmikmod-fabcac29.so.2.0.4',
   '/home/anand/venvs/kent/lib/python3.6/site-packages/pygame/.libs/./libmikmod-fabcac29.so.2.0.4',
   'BINARY'),
  ('libSDL-1-c39928c2.2.so.0.11.4',
   '/home/anand/venvs/kent/lib/python3.6/site-packages/pygame/.libs/libSDL-1-c39928c2.2.so.0.11.4',
   'BINARY'),
  ('libvorbisfile-f207f3a6.so.3.3.7',
   '/home/anand/venvs/kent/lib/python3.6/site-packages/pygame/.libs/./libvorbisfile-f207f3a6.so.3.3.7',
   'BINARY'),
  ('libogg-0d584846.so.0.8.3',
   '/home/anand/venvs/kent/lib/python3.6/site-packages/pygame/.libs/./libogg-0d584846.so.0.8.3',
   'BINARY'),
  ('libgcc_s.so.1', '/lib/x86_64-linux-gnu/libgcc_s.so.1', 'BINARY'),
  ('libgthread-2.0.so.0',
   '/usr/lib/x86_64-linux-gnu/libgthread-2.0.so.0',
   'BINARY'),
  ('libsmpeg-0-7159ee15.4.so.0.1.4',
   '/home/anand/venvs/kent/lib/python3.6/site-packages/pygame/.libs/./libsmpeg-0-7159ee15.4.so.0.1.4',
   'BINARY'),
  ('libstdc++.so.6', '/usr/lib/x86_64-linux-gnu/libstdc++.so.6', 'BINARY'),
  ('libFLAC-6cefaab3.so.8.3.0',
   '/home/anand/venvs/kent/lib/python3.6/site-packages/pygame/.libs/./libFLAC-6cefaab3.so.8.3.0',
   'BINARY'),
  ('libpcre.so.3', '/lib/x86_64-linux-gnu/libpcre.so.3', 'BINARY'),
  ('libvorbis-373f4a71.so.0.4.8',
   '/home/anand/venvs/kent/lib/python3.6/site-packages/pygame/.libs/./libvorbis-373f4a71.so.0.4.8',
   'BINARY'),
  ('libdbus-1-30e56626.so.3.4.0',
   '/home/anand/venvs/kent/lib/python3.6/site-packages/pygame/.libs/./libdbus-1-30e56626.so.3.4.0',
   'BINARY'),
  ('libglib-2.0.so.0', '/usr/lib/x86_64-linux-gnu/libglib-2.0.so.0', 'BINARY'),
  ('libSDL_mixer-1-9fea1499.2.so.0.12.0',
   '/home/anand/venvs/kent/lib/python3.6/site-packages/pygame/.libs/libSDL_mixer-1-9fea1499.2.so.0.12.0',
   'BINARY'),
  ('libsndfile-d5ecee11.so.1.0.17',
   '/home/anand/venvs/kent/lib/python3.6/site-packages/pygame/.libs/./libsndfile-d5ecee11.so.1.0.17',
   'BINARY'),
  ('libfluidsynth-e2f12a37.so.1.5.2',
   '/home/anand/venvs/kent/lib/python3.6/site-packages/pygame/.libs/./libfluidsynth-e2f12a37.so.1.5.2',
   'BINARY'),
  ('libcap-5fec18ee.so.1.10',
   '/home/anand/venvs/kent/lib/python3.6/site-packages/pygame/.libs/./libcap-5fec18ee.so.1.10',
   'BINARY'),
  ('libncursesw.so.5', '/lib/x86_64-linux-gnu/libncursesw.so.5', 'BINARY'),
  ('libopenblasp-r0-2ecf47d5.3.7.dev.so',
   '/home/anand/venvs/kent/lib/python3.6/site-packages/numpy/core/../.libs/libopenblasp-r0-2ecf47d5.3.7.dev.so',
   'BINARY'),
  ('libgfortran-ed201abd.so.3.0.0',
   '/home/anand/venvs/kent/lib/python3.6/site-packages/numpy/core/../.libs/libgfortran-ed201abd.so.3.0.0',
   'BINARY'),
  ('libjpeg-bd53fca1.so.62.0.0',
   '/home/anand/venvs/kent/lib/python3.6/site-packages/pygame/.libs/libjpeg-bd53fca1.so.62.0.0',
   'BINARY'),
  ('libtiff-97e44e95.so.3.8.2',
   '/home/anand/venvs/kent/lib/python3.6/site-packages/pygame/.libs/./libtiff-97e44e95.so.3.8.2',
   'BINARY'),
  ('libz-a147dcb0.so.1.2.3',
   '/home/anand/venvs/kent/lib/python3.6/site-packages/pygame/.libs/./libz-a147dcb0.so.1.2.3',
   'BINARY'),
  ('libSDL_image-1-c6cf9ff4.2.so.0.8.4',
   '/home/anand/venvs/kent/lib/python3.6/site-packages/pygame/.libs/libSDL_image-1-c6cf9ff4.2.so.0.8.4',
   'BINARY'),
  ('libwebp-ec096d5f.so.7.0.4',
   '/home/anand/venvs/kent/lib/python3.6/site-packages/pygame/.libs/./libwebp-ec096d5f.so.7.0.4',
   'BINARY'),
  ('libpng16-e11200e8.so.16.36.0',
   '/home/anand/venvs/kent/lib/python3.6/site-packages/pygame/.libs/libpng16-e11200e8.so.16.36.0',
   'BINARY'),
  ('libX11.so.6', '/usr/lib/x86_64-linux-gnu/libX11.so.6', 'BINARY'),
  ('libXdmcp.so.6', '/usr/lib/x86_64-linux-gnu/libXdmcp.so.6', 'BINARY'),
  ('libXau.so.6', '/usr/lib/x86_64-linux-gnu/libXau.so.6', 'BINARY'),
  ('libbsd.so.0', '/lib/x86_64-linux-gnu/libbsd.so.0', 'BINARY'),
  ('libfreetype-b48c0f70.so.6.15.0',
   '/home/anand/venvs/kent/lib/python3.6/site-packages/pygame/.libs/./libfreetype-b48c0f70.so.6.15.0',
   'BINARY'),
  ('libSDL_ttf-2-254ab10f.0.so.0.10.1',
   '/home/anand/venvs/kent/lib/python3.6/site-packages/pygame/.libs/libSDL_ttf-2-254ab10f.0.so.0.10.1',
   'BINARY'),
  ('libtcl8.6.so', '/usr/lib/x86_64-linux-gnu/libtcl8.6.so', 'BINARY'),
  ('libfontconfig.so.1',
   '/usr/lib/x86_64-linux-gnu/libfontconfig.so.1',
   'BINARY'),
  ('libfreetype.so.6', '/usr/lib/x86_64-linux-gnu/libfreetype.so.6', 'BINARY'),
  ('libXss.so.1', '/usr/lib/x86_64-linux-gnu/libXss.so.1', 'BINARY'),
  ('libtk8.6.so', '/usr/lib/x86_64-linux-gnu/libtk8.6.so', 'BINARY'),
  ('libpng16.so.16', '/usr/lib/x86_64-linux-gnu/libpng16.so.16', 'BINARY'),
  ('libXext.so.6', '/usr/lib/x86_64-linux-gnu/libXext.so.6', 'BINARY'),
  ('libXft.so.2', '/usr/lib/x86_64-linux-gnu/libXft.so.2', 'BINARY'),
  ('libBLT.2.5.so.8.6', '/usr/lib/libBLT.2.5.so.8.6', 'BINARY'),
  ('libXrender.so.1', '/usr/lib/x86_64-linux-gnu/libXrender.so.1', 'BINARY'),
  ('libpython3.6m.so.1.0',
   '/usr/lib/x86_64-linux-gnu/libpython3.6m.so.1.0',
   'BINARY'),
  ('base_library.zip',
   '/home/anand/Videos/Tkinter_2/tkinter-project/melody_app/build/melody/base_library.zip',
   'DATA'),
  ('tk/msgbox.tcl', '/usr/share/tcltk/tk8.6/msgbox.tcl', 'DATA'),
  ('tcl/encoding/jis0201.enc',
   '/usr/share/tcltk/tcl8.6/encoding/jis0201.enc',
   'DATA'),
  ('tcl/msgs/hu.msg', '/usr/share/tcltk/tcl8.6/msgs/hu.msg', 'DATA'),
  ('tk/tk.tcl', '/usr/share/tcltk/tk8.6/tk.tcl', 'DATA'),
  ('tk/ttk/aquaTheme.tcl', '/usr/share/tcltk/tk8.6/ttk/aquaTheme.tcl', 'DATA'),
  ('tcl/encoding/gb2312.enc',
   '/usr/share/tcltk/tcl8.6/encoding/gb2312.enc',
   'DATA'),
  ('tk/images/README', '/usr/share/tcltk/tk8.6/images/README', 'DATA'),
  ('tcl/encoding/cp863.enc',
   '/usr/share/tcltk/tcl8.6/encoding/cp863.enc',
   'DATA'),
  ('tcl/encoding/iso8859-9.enc',
   '/usr/share/tcltk/tcl8.6/encoding/iso8859-9.enc',
   'DATA'),
  ('tk/scale.tcl', '/usr/share/tcltk/tk8.6/scale.tcl', 'DATA'),
  ('tcl/msgs/be.msg', '/usr/share/tcltk/tcl8.6/msgs/be.msg', 'DATA'),
  ('tcl/msgs/fr_ch.msg', '/usr/share/tcltk/tcl8.6/msgs/fr_ch.msg', 'DATA'),
  ('tcl/encoding/cp850.enc',
   '/usr/share/tcltk/tcl8.6/encoding/cp850.enc',
   'DATA'),
  ('tcl/msgs/en_nz.msg', '/usr/share/tcltk/tcl8.6/msgs/en_nz.msg', 'DATA'),
  ('tk/images/pwrdLogo150.gif',
   '/usr/share/tcltk/tk8.6/images/pwrdLogo150.gif',
   'DATA'),
  ('tcl/encoding/gb2312-raw.enc',
   '/usr/share/tcltk/tcl8.6/encoding/gb2312-raw.enc',
   'DATA'),
  ('tcl/encoding/tis-620.enc',
   '/usr/share/tcltk/tcl8.6/encoding/tis-620.enc',
   'DATA'),
  ('tcl/init.tcl', '/usr/share/tcltk/tcl8.6/init.tcl', 'DATA'),
  ('tcl/encoding/cp860.enc',
   '/usr/share/tcltk/tcl8.6/encoding/cp860.enc',
   'DATA'),
  ('tcl/encoding/symbol.enc',
   '/usr/share/tcltk/tcl8.6/encoding/symbol.enc',
   'DATA'),
  ('tcl/msgs/da.msg', '/usr/share/tcltk/tcl8.6/msgs/da.msg', 'DATA'),
  ('tcl/word.tcl', '/usr/share/tcltk/tcl8.6/word.tcl', 'DATA'),
  ('tcl/encoding/cp737.enc',
   '/usr/share/tcltk/tcl8.6/encoding/cp737.enc',
   'DATA'),
  ('tk/msgs/eo.msg', '/usr/share/tcltk/tk8.6/msgs/eo.msg', 'DATA'),
  ('tcl/encoding/iso2022-jp.enc',
   '/usr/share/tcltk/tcl8.6/encoding/iso2022-jp.enc',
   'DATA'),
  ('tcl/encoding/cp1251.enc',
   '/usr/share/tcltk/tcl8.6/encoding/cp1251.enc',
   'DATA'),
  ('tk/text.tcl', '/usr/share/tcltk/tk8.6/text.tcl', 'DATA'),
  ('tk/ttk/utils.tcl', '/usr/share/tcltk/tk8.6/ttk/utils.tcl', 'DATA'),
  ('tcl/msgs/de.msg', '/usr/share/tcltk/tcl8.6/msgs/de.msg', 'DATA'),
  ('tcl/msgs/sq.msg', '/usr/share/tcltk/tcl8.6/msgs/sq.msg', 'DATA'),
  ('tk/ttk/xpTheme.tcl', '/usr/share/tcltk/tk8.6/ttk/xpTheme.tcl', 'DATA'),
  ('tk/images/logoLarge.gif',
   '/usr/share/tcltk/tk8.6/images/logoLarge.gif',
   'DATA'),
  ('tcl/msgs/ar_lb.msg', '/usr/share/tcltk/tcl8.6/msgs/ar_lb.msg', 'DATA'),
  ('tcl/msgs/es_gt.msg', '/usr/share/tcltk/tcl8.6/msgs/es_gt.msg', 'DATA'),
  ('tk/images/pwrdLogo100.gif',
   '/usr/share/tcltk/tk8.6/images/pwrdLogo100.gif',
   'DATA'),
  ('tcl/msgs/es_pr.msg', '/usr/share/tcltk/tcl8.6/msgs/es_pr.msg', 'DATA'),
  ('tk/msgs/el.msg', '/usr/share/tcltk/tk8.6/msgs/el.msg', 'DATA'),
  ('tk/tearoff.tcl', '/usr/share/tcltk/tk8.6/tearoff.tcl', 'DATA'),
  ('tcl/encoding/macDingbats.enc',
   '/usr/share/tcltk/tcl8.6/encoding/macDingbats.enc',
   'DATA'),
  ('lib/python3.6/config-3.6m-x86_64-linux-gnu/Makefile',
   '/home/anand/venvs/kent/lib/python3.6/config-3.6m-x86_64-linux-gnu/Makefile',
   'DATA'),
  ('tcl/encoding/cp852.enc',
   '/usr/share/tcltk/tcl8.6/encoding/cp852.enc',
   'DATA'),
  ('tcl/msgs/eo.msg', '/usr/share/tcltk/tcl8.6/msgs/eo.msg', 'DATA'),
  ('tk/optMenu.tcl', '/usr/share/tcltk/tk8.6/optMenu.tcl', 'DATA'),
  ('tcl/msgs/es_uy.msg', '/usr/share/tcltk/tcl8.6/msgs/es_uy.msg', 'DATA'),
  ('tcl/tcl8/platform/shell-1.1.4.tm',
   '/usr/share/tcltk/tcl8.6/tcl8/platform/shell-1.1.4.tm',
   'DATA'),
  ('tk/ttk/altTheme.tcl', '/usr/share/tcltk/tk8.6/ttk/altTheme.tcl', 'DATA'),
  ('tcl/encoding/cp1253.enc',
   '/usr/share/tcltk/tcl8.6/encoding/cp1253.enc',
   'DATA'),
  ('tcl/msgs/mr.msg', '/usr/share/tcltk/tcl8.6/msgs/mr.msg', 'DATA'),
  ('tk/ttk/menubutton.tcl',
   '/usr/share/tcltk/tk8.6/ttk/menubutton.tcl',
   'DATA'),
  ('tcl/msgs/kw.msg', '/usr/share/tcltk/tcl8.6/msgs/kw.msg', 'DATA'),
  ('tcl/msgs/es_ar.msg', '/usr/share/tcltk/tcl8.6/msgs/es_ar.msg', 'DATA'),
  ('tcl/tm.tcl', '/usr/share/tcltk/tcl8.6/tm.tcl', 'DATA'),
  ('tcl/msgs/fr_ca.msg', '/usr/share/tcltk/tcl8.6/msgs/fr_ca.msg', 'DATA'),
  ('tcl/msgs/mr_in.msg', '/usr/share/tcltk/tcl8.6/msgs/mr_in.msg', 'DATA'),
  ('tcl/msgs/en_be.msg', '/usr/share/tcltk/tcl8.6/msgs/en_be.msg', 'DATA'),
  ('tcl/msgs/en_zw.msg', '/usr/share/tcltk/tcl8.6/msgs/en_zw.msg', 'DATA'),
  ('tcl/msgs/sw.msg', '/usr/share/tcltk/tcl8.6/msgs/sw.msg', 'DATA'),
  ('tk/megawidget.tcl', '/usr/share/tcltk/tk8.6/megawidget.tcl', 'DATA'),
  ('tk/msgs/it.msg', '/usr/share/tcltk/tk8.6/msgs/it.msg', 'DATA'),
  ('tk/msgs/sv.msg', '/usr/share/tcltk/tk8.6/msgs/sv.msg', 'DATA'),
  ('tk/ttk/treeview.tcl', '/usr/share/tcltk/tk8.6/ttk/treeview.tcl', 'DATA'),
  ('tcl/http1.0/http.tcl', '/usr/share/tcltk/tcl8.6/http1.0/http.tcl', 'DATA'),
  ('tk/msgs/en_gb.msg', '/usr/share/tcltk/tk8.6/msgs/en_gb.msg', 'DATA'),
  ('tcl/msgs/fa.msg', '/usr/share/tcltk/tcl8.6/msgs/fa.msg', 'DATA'),
  ('tcl/msgs/vi.msg', '/usr/share/tcltk/tcl8.6/msgs/vi.msg', 'DATA'),
  ('tcl/msgs/es_ni.msg', '/usr/share/tcltk/tcl8.6/msgs/es_ni.msg', 'DATA'),
  ('tk/entry.tcl', '/usr/share/tcltk/tk8.6/entry.tcl', 'DATA'),
  ('tcl/opt0.4/pkgIndex.tcl',
   '/usr/share/tcltk/tcl8.6/opt0.4/pkgIndex.tcl',
   'DATA'),
  ('tk/panedwindow.tcl', '/usr/share/tcltk/tk8.6/panedwindow.tcl', 'DATA'),
  ('tcl/msgs/th.msg', '/usr/share/tcltk/tcl8.6/msgs/th.msg', 'DATA'),
  ('tk/images/pwrdLogo75.gif',
   '/usr/share/tcltk/tk8.6/images/pwrdLogo75.gif',
   'DATA'),
  ('tk/button.tcl', '/usr/share/tcltk/tk8.6/button.tcl', 'DATA'),
  ('tk/msgs/nl.msg', '/usr/share/tcltk/tk8.6/msgs/nl.msg', 'DATA'),
  ('tcl/msgs/lv.msg', '/usr/share/tcltk/tcl8.6/msgs/lv.msg', 'DATA'),
  ('tcl/msgs/ga.msg', '/usr/share/tcltk/tcl8.6/msgs/ga.msg', 'DATA'),
  ('tcl/encoding/cp936.enc',
   '/usr/share/tcltk/tcl8.6/encoding/cp936.enc',
   'DATA'),
  ('tk/ttk/scrollbar.tcl', '/usr/share/tcltk/tk8.6/ttk/scrollbar.tcl', 'DATA'),
  ('tcl/msgs/es_cr.msg', '/usr/share/tcltk/tcl8.6/msgs/es_cr.msg', 'DATA'),
  ('tk/focus.tcl', '/usr/share/tcltk/tk8.6/focus.tcl', 'DATA'),
  ('tcl/tcl8/platform-1.0.14.tm',
   '/usr/share/tcltk/tcl8.6/tcl8/platform-1.0.14.tm',
   'DATA'),
  ('tcl/msgs/fr.msg', '/usr/share/tcltk/tcl8.6/msgs/fr.msg', 'DATA'),
  ('tk/msgs/cs.msg', '/usr/share/tcltk/tk8.6/msgs/cs.msg', 'DATA'),
  ('tcl/msgs/nl.msg', '/usr/share/tcltk/tcl8.6/msgs/nl.msg', 'DATA'),
  ('tcl/encoding/macTurkish.enc',
   '/usr/share/tcltk/tcl8.6/encoding/macTurkish.enc',
   'DATA'),
  ('tcl/msgs/ms_my.msg', '/usr/share/tcltk/tcl8.6/msgs/ms_my.msg', 'DATA'),
  ('tcl/msgs/uk.msg', '/usr/share/tcltk/tcl8.6/msgs/uk.msg', 'DATA'),
  ('tcl/msgs/es_pa.msg', '/usr/share/tcltk/tcl8.6/msgs/es_pa.msg', 'DATA'),
  ('tk/clrpick.tcl', '/usr/share/tcltk/tk8.6/clrpick.tcl', 'DATA'),
  ('tcl/msgs/kl_gl.msg', '/usr/share/tcltk/tcl8.6/msgs/kl_gl.msg', 'DATA'),
  ('tcl/msgs/ar_in.msg', '/usr/share/tcltk/tcl8.6/msgs/ar_in.msg', 'DATA'),
  ('tcl/encoding/cp949.enc',
   '/usr/share/tcltk/tcl8.6/encoding/cp949.enc',
   'DATA'),
  ('tcl/encoding/euc-jp.enc',
   '/usr/share/tcltk/tcl8.6/encoding/euc-jp.enc',
   'DATA'),
  ('tcl/auto.tcl', '/usr/share/tcltk/tcl8.6/auto.tcl', 'DATA'),
  ('tcl/msgs/es_sv.msg', '/usr/share/tcltk/tcl8.6/msgs/es_sv.msg', 'DATA'),
  ('tcl/msgs/el.msg', '/usr/share/tcltk/tcl8.6/msgs/el.msg', 'DATA'),
  ('tcl/msgs/kok.msg', '/usr/share/tcltk/tcl8.6/msgs/kok.msg', 'DATA'),
  ('tcl/encoding/cp866.enc',
   '/usr/share/tcltk/tcl8.6/encoding/cp866.enc',
   'DATA'),
  ('tcl/msgs/ms.msg', '/usr/share/tcltk/tcl8.6/msgs/ms.msg', 'DATA'),
  ('tcl/msgs/fi.msg', '/usr/share/tcltk/tcl8.6/msgs/fi.msg', 'DATA'),
  ('tcl/msgs/es_bo.msg', '/usr/share/tcltk/tcl8.6/msgs/es_bo.msg', 'DATA'),
  ('tk/safetk.tcl', '/usr/share/tcltk/tk8.6/safetk.tcl', 'DATA'),
  ('tcl/msgs/mt.msg', '/usr/share/tcltk/tcl8.6/msgs/mt.msg', 'DATA'),
  ('tcl/msgs/en_au.msg', '/usr/share/tcltk/tcl8.6/msgs/en_au.msg', 'DATA'),
  ('tcl/encoding/big5.enc',
   '/usr/share/tcltk/tcl8.6/encoding/big5.enc',
   'DATA'),
  ('tcl/msgs/ta_in.msg', '/usr/share/tcltk/tcl8.6/msgs/ta_in.msg', 'DATA'),
  ('tk/ttk/combobox.tcl', '/usr/share/tcltk/tk8.6/ttk/combobox.tcl', 'DATA'),
  ('tcl/encoding/iso8859-5.enc',
   '/usr/share/tcltk/tcl8.6/encoding/iso8859-5.enc',
   'DATA'),
  ('tcl/encoding/macCyrillic.enc',
   '/usr/share/tcltk/tcl8.6/encoding/macCyrillic.enc',
   'DATA'),
  ('tcl/encoding/cp932.enc',
   '/usr/share/tcltk/tcl8.6/encoding/cp932.enc',
   'DATA'),
  ('tcl/msgs/hi.msg', '/usr/share/tcltk/tcl8.6/msgs/hi.msg', 'DATA'),
  ('tcl/encoding/cp1258.enc',
   '/usr/share/tcltk/tcl8.6/encoding/cp1258.enc',
   'DATA'),
  ('tk/tkfbox.tcl', '/usr/share/tcltk/tk8.6/tkfbox.tcl', 'DATA'),
  ('tcl/msgs/it_ch.msg', '/usr/share/tcltk/tcl8.6/msgs/it_ch.msg', 'DATA'),
  ('tcl/msgs/zh_tw.msg', '/usr/share/tcltk/tcl8.6/msgs/zh_tw.msg', 'DATA'),
  ('tcl/encoding/cp874.enc',
   '/usr/share/tcltk/tcl8.6/encoding/cp874.enc',
   'DATA'),
  ('tcl/msgs/ru_ua.msg', '/usr/share/tcltk/tcl8.6/msgs/ru_ua.msg', 'DATA'),
  ('tcl/msgs/ro.msg', '/usr/share/tcltk/tcl8.6/msgs/ro.msg', 'DATA'),
  ('tk/tclIndex', '/usr/share/tcltk/tk8.6/tclIndex', 'DATA'),
  ('tcl/encoding/ksc5601.enc',
   '/usr/share/tcltk/tcl8.6/encoding/ksc5601.enc',
   'DATA'),
  ('tcl/msgs/ar.msg', '/usr/share/tcltk/tcl8.6/msgs/ar.msg', 'DATA'),
  ('tcl/encoding/koi8-u.enc',
   '/usr/share/tcltk/tcl8.6/encoding/koi8-u.enc',
   'DATA'),
  ('tk/choosedir.tcl', '/usr/share/tcltk/tk8.6/choosedir.tcl', 'DATA'),
  ('tk/ttk/classicTheme.tcl',
   '/usr/share/tcltk/tk8.6/ttk/classicTheme.tcl',
   'DATA'),
  ('tcl/msgs/af_za.msg', '/usr/share/tcltk/tcl8.6/msgs/af_za.msg', 'DATA'),
  ('tk/ttk/fonts.tcl', '/usr/share/tcltk/tk8.6/ttk/fonts.tcl', 'DATA'),
  ('tcl/encoding/macCentEuro.enc',
   '/usr/share/tcltk/tcl8.6/encoding/macCentEuro.enc',
   'DATA'),
  ('tk/ttk/panedwindow.tcl',
   '/usr/share/tcltk/tk8.6/ttk/panedwindow.tcl',
   'DATA'),
  ('tk/fontchooser.tcl', '/usr/share/tcltk/tk8.6/fontchooser.tcl', 'DATA'),
  ('tcl/msgs/de_be.msg', '/usr/share/tcltk/tcl8.6/msgs/de_be.msg', 'DATA'),
  ('tcl/msgs/en_za.msg', '/usr/share/tcltk/tcl8.6/msgs/en_za.msg', 'DATA'),
  ('tcl/msgs/fr_be.msg', '/usr/share/tcltk/tcl8.6/msgs/fr_be.msg', 'DATA'),
  ('tcl/msgs/he.msg', '/usr/share/tcltk/tcl8.6/msgs/he.msg', 'DATA'),
  ('tcl/msgs/fo_fo.msg', '/usr/share/tcltk/tcl8.6/msgs/fo_fo.msg', 'DATA'),
  ('tk/images/tai-ku.gif', '/usr/share/tcltk/tk8.6/images/tai-ku.gif', 'DATA'),
  ('tcl/encoding/cp775.enc',
   '/usr/share/tcltk/tcl8.6/encoding/cp775.enc',
   'DATA'),
  ('tk/obsolete.tcl', '/usr/share/tcltk/tk8.6/obsolete.tcl', 'DATA'),
  ('tcl/encoding/cp1256.enc',
   '/usr/share/tcltk/tcl8.6/encoding/cp1256.enc',
   'DATA'),
  ('tcl/msgs/ko.msg', '/usr/share/tcltk/tcl8.6/msgs/ko.msg', 'DATA'),
  ('tk/msgs/pl.msg', '/usr/share/tcltk/tk8.6/msgs/pl.msg', 'DATA'),
  ('tcl/msgs/bg.msg', '/usr/share/tcltk/tcl8.6/msgs/bg.msg', 'DATA'),
  ('tcl/encoding/iso2022-kr.enc',
   '/usr/share/tcltk/tcl8.6/encoding/iso2022-kr.enc',
   'DATA'),
  ('tcl/encoding/cp950.enc',
   '/usr/share/tcltk/tcl8.6/encoding/cp950.enc',
   'DATA'),
  ('tcl/msgs/es_ve.msg', '/usr/share/tcltk/tcl8.6/msgs/es_ve.msg', 'DATA'),
  ('tcl/msgs/en_ca.msg', '/usr/share/tcltk/tcl8.6/msgs/en_ca.msg', 'DATA'),
  ('tcl/msgs/hr.msg', '/usr/share/tcltk/tcl8.6/msgs/hr.msg', 'DATA'),
  ('tcl/msgs/kok_in.msg', '/usr/share/tcltk/tcl8.6/msgs/kok_in.msg', 'DATA'),
  ('tcl/msgs/gv.msg', '/usr/share/tcltk/tcl8.6/msgs/gv.msg', 'DATA'),
  ('tk/ttk/winTheme.tcl', '/usr/share/tcltk/tk8.6/ttk/winTheme.tcl', 'DATA'),
  ('tk/ttk/cursors.tcl', '/usr/share/tcltk/tk8.6/ttk/cursors.tcl', 'DATA'),
  ('tcl/msgs/ko_kr.msg', '/usr/share/tcltk/tcl8.6/msgs/ko_kr.msg', 'DATA'),
  ('tcl/msgs/sk.msg', '/usr/share/tcltk/tcl8.6/msgs/sk.msg', 'DATA'),
  ('tcl/msgs/en_ph.msg', '/usr/share/tcltk/tcl8.6/msgs/en_ph.msg', 'DATA'),
  ('tcl/msgs/gl.msg', '/usr/share/tcltk/tcl8.6/msgs/gl.msg', 'DATA'),
  ('tk/images/pwrdLogo175.gif',
   '/usr/share/tcltk/tk8.6/images/pwrdLogo175.gif',
   'DATA'),
  ('tcl/safe.tcl', '/usr/share/tcltk/tcl8.6/safe.tcl', 'DATA'),
  ('tcl/msgs/zh.msg', '/usr/share/tcltk/tcl8.6/msgs/zh.msg', 'DATA'),
  ('tk/ttk/ttk.tcl', '/usr/share/tcltk/tk8.6/ttk/ttk.tcl', 'DATA'),
  ('tk/msgs/da.msg', '/usr/share/tcltk/tk8.6/msgs/da.msg', 'DATA'),
  ('tcl/encoding/euc-kr.enc',
   '/usr/share/tcltk/tcl8.6/encoding/euc-kr.enc',
   'DATA'),
  ('tcl/msgs/pt_br.msg', '/usr/share/tcltk/tcl8.6/msgs/pt_br.msg', 'DATA'),
  ('tk/images/pwrdLogo200.gif',
   '/usr/share/tcltk/tk8.6/images/pwrdLogo200.gif',
   'DATA'),
  ('tcl/encoding/macThai.enc',
   '/usr/share/tcltk/tcl8.6/encoding/macThai.enc',
   'DATA'),
  ('tk/palette.tcl', '/usr/share/tcltk/tk8.6/palette.tcl', 'DATA'),
  ('tcl/msgs/hi_in.msg', '/usr/share/tcltk/tcl8.6/msgs/hi_in.msg', 'DATA'),
  ('tk/tkAppInit.c', '/usr/share/tcltk/tk8.6/tkAppInit.c', 'DATA'),
  ('tk/ttk/vistaTheme.tcl',
   '/usr/share/tcltk/tk8.6/ttk/vistaTheme.tcl',
   'DATA'),
  ('tcl/msgs/fo.msg', '/usr/share/tcltk/tcl8.6/msgs/fo.msg', 'DATA'),
  ('tcl/encoding/iso8859-1.enc',
   '/usr/share/tcltk/tcl8.6/encoding/iso8859-1.enc',
   'DATA'),
  ('tcl/msgs/bn.msg', '/usr/share/tcltk/tcl8.6/msgs/bn.msg', 'DATA'),
  ('tk/msgs/hu.msg', '/usr/share/tcltk/tk8.6/msgs/hu.msg', 'DATA'),
  ('tcl/msgs/gl_es.msg', '/usr/share/tcltk/tcl8.6/msgs/gl_es.msg', 'DATA'),
  ('tk/ttk/notebook.tcl', '/usr/share/tcltk/tk8.6/ttk/notebook.tcl', 'DATA'),
  ('tcl/encoding/koi8-r.enc',
   '/usr/share/tcltk/tcl8.6/encoding/koi8-r.enc',
   'DATA'),
  ('tcl/encoding/iso8859-4.enc',
   '/usr/share/tcltk/tcl8.6/encoding/iso8859-4.enc',
   'DATA'),
  ('tcl/encoding/iso8859-10.enc',
   '/usr/share/tcltk/tcl8.6/encoding/iso8859-10.enc',
   'DATA'),
  ('tcl/msgs/mk.msg', '/usr/share/tcltk/tcl8.6/msgs/mk.msg', 'DATA'),
  ('tcl/encoding/ebcdic.enc',
   '/usr/share/tcltk/tcl8.6/encoding/ebcdic.enc',
   'DATA'),
  ('tcl/msgs/id_id.msg', '/usr/share/tcltk/tcl8.6/msgs/id_id.msg', 'DATA'),
  ('tcl/msgs/it.msg', '/usr/share/tcltk/tcl8.6/msgs/it.msg', 'DATA'),
  ('tcl/encoding/cp869.enc',
   '/usr/share/tcltk/tcl8.6/encoding/cp869.enc',
   'DATA'),
  ('tcl/encoding/iso8859-8.enc',
   '/usr/share/tcltk/tcl8.6/encoding/iso8859-8.enc',
   'DATA'),
  ('tcl/encoding/cp855.enc',
   '/usr/share/tcltk/tcl8.6/encoding/cp855.enc',
   'DATA'),
  ('tcl/encoding/cp1255.enc',
   '/usr/share/tcltk/tcl8.6/encoding/cp1255.enc',
   'DATA'),
  ('tcl/encoding/iso8859-16.enc',
   '/usr/share/tcltk/tcl8.6/encoding/iso8859-16.enc',
   'DATA'),
  ('tk/ttk/spinbox.tcl', '/usr/share/tcltk/tk8.6/ttk/spinbox.tcl', 'DATA'),
  ('tcl/tcl8/tcltest-2.4.1.tm',
   '/usr/share/tcltk/tcl8.6/tcl8/tcltest-2.4.1.tm',
   'DATA'),
  ('tcl/msgs/en_ie.msg', '/usr/share/tcltk/tcl8.6/msgs/en_ie.msg', 'DATA'),
  ('tcl/msgs/sl.msg', '/usr/share/tcltk/tcl8.6/msgs/sl.msg', 'DATA'),
  ('tk/ttk/defaults.tcl', '/usr/share/tcltk/tk8.6/ttk/defaults.tcl', 'DATA'),
  ('tcl/msgs/ca.msg', '/usr/share/tcltk/tcl8.6/msgs/ca.msg', 'DATA'),
  ('tk/unsupported.tcl', '/usr/share/tcltk/tk8.6/unsupported.tcl', 'DATA'),
  ('tcl/msgs/lt.msg', '/usr/share/tcltk/tcl8.6/msgs/lt.msg', 'DATA'),
  ('tk/images/logoMed.gif',
   '/usr/share/tcltk/tk8.6/images/logoMed.gif',
   'DATA'),
  ('tcl/encoding/iso2022.enc',
   '/usr/share/tcltk/tcl8.6/encoding/iso2022.enc',
   'DATA'),
  ('tcl/msgs/ar_sy.msg', '/usr/share/tcltk/tcl8.6/msgs/ar_sy.msg', 'DATA'),
  ('tk/images/pwrdLogo.eps',
   '/usr/share/tcltk/tk8.6/images/pwrdLogo.eps',
   'DATA'),
  ('tcl/msgs/id.msg', '/usr/share/tcltk/tcl8.6/msgs/id.msg', 'DATA'),
  ('tcl/msgs/et.msg', '/usr/share/tcltk/tcl8.6/msgs/et.msg', 'DATA'),
  ('tcl/msgs/fa_ir.msg', '/usr/share/tcltk/tcl8.6/msgs/fa_ir.msg', 'DATA'),
  ('tcl/encoding/cp861.enc',
   '/usr/share/tcltk/tcl8.6/encoding/cp861.enc',
   'DATA'),
  ('tk/icons.tcl', '/usr/share/tcltk/tk8.6/icons.tcl', 'DATA'),
  ('tk/iconlist.tcl', '/usr/share/tcltk/tk8.6/iconlist.tcl', 'DATA'),
  ('tcl/msgs/en_sg.msg', '/usr/share/tcltk/tcl8.6/msgs/en_sg.msg', 'DATA'),
  ('tcl/encoding/iso8859-13.enc',
   '/usr/share/tcltk/tcl8.6/encoding/iso8859-13.enc',
   'DATA'),
  ('tcl/encoding/iso8859-7.enc',
   '/usr/share/tcltk/tcl8.6/encoding/iso8859-7.enc',
   'DATA'),
  ('tk/msgs/pt.msg', '/usr/share/tcltk/tk8.6/msgs/pt.msg', 'DATA'),
  ('tcl/msgs/te_in.msg', '/usr/share/tcltk/tcl8.6/msgs/te_in.msg', 'DATA'),
  ('tcl/encoding/gb1988.enc',
   '/usr/share/tcltk/tcl8.6/encoding/gb1988.enc',
   'DATA'),
  ('tk/console.tcl', '/usr/share/tcltk/tk8.6/console.tcl', 'DATA'),
  ('tcl/msgs/es.msg', '/usr/share/tcltk/tcl8.6/msgs/es.msg', 'DATA'),
  ('tcl/encoding/iso8859-3.enc',
   '/usr/share/tcltk/tcl8.6/encoding/iso8859-3.enc',
   'DATA'),
  ('tcl/encoding/macUkraine.enc',
   '/usr/share/tcltk/tcl8.6/encoding/macUkraine.enc',
   'DATA'),
  ('tcl/msgs/nl_be.msg', '/usr/share/tcltk/tcl8.6/msgs/nl_be.msg', 'DATA'),
  ('tcl/tcl8/http-2.8.12.tm',
   '/usr/share/tcltk/tcl8.6/tcl8/http-2.8.12.tm',
   'DATA'),
  ('tcl/msgs/sr.msg', '/usr/share/tcltk/tcl8.6/msgs/sr.msg', 'DATA'),
  ('tcl/msgs/ar_jo.msg', '/usr/share/tcltk/tcl8.6/msgs/ar_jo.msg', 'DATA'),
  ('tcl/msgs/eu_es.msg', '/usr/share/tcltk/tcl8.6/msgs/eu_es.msg', 'DATA'),
  ('tcl/msgs/es_co.msg', '/usr/share/tcltk/tcl8.6/msgs/es_co.msg', 'DATA'),
  ('tcl/msgs/zh_cn.msg', '/usr/share/tcltk/tcl8.6/msgs/zh_cn.msg', 'DATA'),
  ('tk/dialog.tcl', '/usr/share/tcltk/tk8.6/dialog.tcl', 'DATA'),
  ('tcl/msgs/es_mx.msg', '/usr/share/tcltk/tcl8.6/msgs/es_mx.msg', 'DATA'),
  ('tk/msgs/en.msg', '/usr/share/tcltk/tk8.6/msgs/en.msg', 'DATA'),
  ('tk/msgs/es.msg', '/usr/share/tcltk/tk8.6/msgs/es.msg', 'DATA'),
  ('tcl/encoding/cp437.enc',
   '/usr/share/tcltk/tcl8.6/encoding/cp437.enc',
   'DATA'),
  ('tk/ttk/sizegrip.tcl', '/usr/share/tcltk/tk8.6/ttk/sizegrip.tcl', 'DATA'),
  ('tk/msgs/fr.msg', '/usr/share/tcltk/tk8.6/msgs/fr.msg', 'DATA'),
  ('tcl/msgs/te.msg', '/usr/share/tcltk/tcl8.6/msgs/te.msg', 'DATA'),
  ('tcl/encoding/macGreek.enc',
   '/usr/share/tcltk/tcl8.6/encoding/macGreek.enc',
   'DATA'),
  ('tcl/msgs/es_do.msg', '/usr/share/tcltk/tcl8.6/msgs/es_do.msg', 'DATA'),
  ('tcl/encoding/cp1257.enc',
   '/usr/share/tcltk/tcl8.6/encoding/cp1257.enc',
   'DATA'),
  ('tcl/encoding/cp1254.enc',
   '/usr/share/tcltk/tcl8.6/encoding/cp1254.enc',
   'DATA'),
  ('tcl/tcl8/msgcat-1.6.1.tm',
   '/usr/share/tcltk/tcl8.6/tcl8/msgcat-1.6.1.tm',
   'DATA'),
  ('tk/msgs/ru.msg', '/usr/share/tcltk/tk8.6/msgs/ru.msg', 'DATA'),
  ('tcl/msgs/en_bw.msg', '/usr/share/tcltk/tcl8.6/msgs/en_bw.msg', 'DATA'),
  ('tcl/msgs/es_hn.msg', '/usr/share/tcltk/tcl8.6/msgs/es_hn.msg', 'DATA'),
  ('tcl/msgs/zh_hk.msg', '/usr/share/tcltk/tcl8.6/msgs/zh_hk.msg', 'DATA'),
  ('tcl/msgs/gv_gb.msg', '/usr/share/tcltk/tcl8.6/msgs/gv_gb.msg', 'DATA'),
  ('lib2to3/PatternGrammar.txt',
   '/usr/lib/python3.6/lib2to3/PatternGrammar.txt',
   'DATA'),
  ('tcl/msgs/pl.msg', '/usr/share/tcltk/tcl8.6/msgs/pl.msg', 'DATA'),
  ('tcl/encoding/ascii.enc',
   '/usr/share/tcltk/tcl8.6/encoding/ascii.enc',
   'DATA'),
  ('tcl/msgs/nb.msg', '/usr/share/tcltk/tcl8.6/msgs/nb.msg', 'DATA'),
  ('tk/scrlbar.tcl', '/usr/share/tcltk/tk8.6/scrlbar.tcl', 'DATA'),
  ('tk/ttk/entry.tcl', '/usr/share/tcltk/tk8.6/ttk/entry.tcl', 'DATA'),
  ('tcl/msgs/es_pe.msg', '/usr/share/tcltk/tcl8.6/msgs/es_pe.msg', 'DATA'),
  ('lib2to3/Grammar.txt', '/usr/lib/python3.6/lib2to3/Grammar.txt', 'DATA'),
  ('tcl/msgs/fa_in.msg', '/usr/share/tcltk/tcl8.6/msgs/fa_in.msg', 'DATA'),
  ('tcl/msgs/kw_gb.msg', '/usr/share/tcltk/tcl8.6/msgs/kw_gb.msg', 'DATA'),
  ('tk/comdlg.tcl', '/usr/share/tcltk/tk8.6/comdlg.tcl', 'DATA'),
  ('tk/xmfbox.tcl', '/usr/share/tcltk/tk8.6/xmfbox.tcl', 'DATA'),
  ('tcl/msgs/ru.msg', '/usr/share/tcltk/tcl8.6/msgs/ru.msg', 'DATA'),
  ('tk/images/logo64.gif', '/usr/share/tcltk/tk8.6/images/logo64.gif', 'DATA'),
  ('tcl/http1.0/pkgIndex.tcl',
   '/usr/share/tcltk/tcl8.6/http1.0/pkgIndex.tcl',
   'DATA'),
  ('tcl/msgs/eu.msg', '/usr/share/tcltk/tcl8.6/msgs/eu.msg', 'DATA'),
  ('tcl/encoding/cp1252.enc',
   '/usr/share/tcltk/tcl8.6/encoding/cp1252.enc',
   'DATA'),
  ('tk/msgs/de.msg', '/usr/share/tcltk/tk8.6/msgs/de.msg', 'DATA'),
  ('tk/ttk/button.tcl', '/usr/share/tcltk/tk8.6/ttk/button.tcl', 'DATA'),
  ('tcl/encoding/iso8859-15.enc',
   '/usr/share/tcltk/tcl8.6/encoding/iso8859-15.enc',
   'DATA'),
  ('tcl/encoding/cp865.enc',
   '/usr/share/tcltk/tcl8.6/encoding/cp865.enc',
   'DATA'),
  ('tcl/encoding/macCroatian.enc',
   '/usr/share/tcltk/tcl8.6/encoding/macCroatian.enc',
   'DATA'),
  ('tcl/opt0.4/optparse.tcl',
   '/usr/share/tcltk/tcl8.6/opt0.4/optparse.tcl',
   'DATA'),
  ('tcl/tclIndex', '/usr/share/tcltk/tcl8.6/tclIndex', 'DATA'),
  ('tk/menu.tcl', '/usr/share/tcltk/tk8.6/menu.tcl', 'DATA'),
  ('tcl/encoding/cp862.enc',
   '/usr/share/tcltk/tcl8.6/encoding/cp862.enc',
   'DATA'),
  ('tcl/msgs/pt.msg', '/usr/share/tcltk/tcl8.6/msgs/pt.msg', 'DATA'),
  ('tcl/msgs/es_ec.msg', '/usr/share/tcltk/tcl8.6/msgs/es_ec.msg', 'DATA'),
  ('tcl/msgs/kl.msg', '/usr/share/tcltk/tcl8.6/msgs/kl.msg', 'DATA'),
  ('tcl/msgs/cs.msg', '/usr/share/tcltk/tcl8.6/msgs/cs.msg', 'DATA'),
  ('tcl/encoding/shiftjis.enc',
   '/usr/share/tcltk/tcl8.6/encoding/shiftjis.enc',
   'DATA'),
  ('tcl/msgs/nn.msg', '/usr/share/tcltk/tcl8.6/msgs/nn.msg', 'DATA'),
  ('tcl/msgs/sh.msg', '/usr/share/tcltk/tcl8.6/msgs/sh.msg', 'DATA'),
  ('tcl/encoding/macIceland.enc',
   '/usr/share/tcltk/tcl8.6/encoding/macIceland.enc',
   'DATA'),
  ('tcl/history.tcl', '/usr/share/tcltk/tcl8.6/history.tcl', 'DATA'),
  ('tcl/msgs/es_cl.msg', '/usr/share/tcltk/tcl8.6/msgs/es_cl.msg', 'DATA'),
  ('tcl/package.tcl', '/usr/share/tcltk/tcl8.6/package.tcl', 'DATA'),
  ('tcl/msgs/tr.msg', '/usr/share/tcltk/tcl8.6/msgs/tr.msg', 'DATA'),
  ('tcl/msgs/bn_in.msg', '/usr/share/tcltk/tcl8.6/msgs/bn_in.msg', 'DATA'),
  ('tk/images/logo100.gif',
   '/usr/share/tcltk/tk8.6/images/logo100.gif',
   'DATA'),
  ('tcl/encoding/macRoman.enc',
   '/usr/share/tcltk/tcl8.6/encoding/macRoman.enc',
   'DATA'),
  ('tcl/encoding/cp857.enc',
   '/usr/share/tcltk/tcl8.6/encoding/cp857.enc',
   'DATA'),
  ('tcl/encoding/cp1250.enc',
   '/usr/share/tcltk/tcl8.6/encoding/cp1250.enc',
   'DATA'),
  ('tcl/msgs/is.msg', '/usr/share/tcltk/tcl8.6/msgs/is.msg', 'DATA'),
  ('tk/mkpsenc.tcl', '/usr/share/tcltk/tk8.6/mkpsenc.tcl', 'DATA'),
  ('tk/ttk/scale.tcl', '/usr/share/tcltk/tk8.6/ttk/scale.tcl', 'DATA'),
  ('tcl/msgs/af.msg', '/usr/share/tcltk/tcl8.6/msgs/af.msg', 'DATA'),
  ('tcl/msgs/en_hk.msg', '/usr/share/tcltk/tcl8.6/msgs/en_hk.msg', 'DATA'),
  ('tk/bgerror.tcl', '/usr/share/tcltk/tk8.6/bgerror.tcl', 'DATA'),
  ('tk/listbox.tcl', '/usr/share/tcltk/tk8.6/listbox.tcl', 'DATA'),
  ('tcl/msgs/en_gb.msg', '/usr/share/tcltk/tcl8.6/msgs/en_gb.msg', 'DATA'),
  ('tcl/encoding/cp864.enc',
   '/usr/share/tcltk/tcl8.6/encoding/cp864.enc',
   'DATA'),
  ('tcl/msgs/de_at.msg', '/usr/share/tcltk/tcl8.6/msgs/de_at.msg', 'DATA'),
  ('tcl/encoding/macJapan.enc',
   '/usr/share/tcltk/tcl8.6/encoding/macJapan.enc',
   'DATA'),
  ('tk/spinbox.tcl', '/usr/share/tcltk/tk8.6/spinbox.tcl', 'DATA'),
  ('tcl/encoding/iso8859-2.enc',
   '/usr/share/tcltk/tcl8.6/encoding/iso8859-2.enc',
   'DATA'),
  ('tk/images/logo.eps', '/usr/share/tcltk/tk8.6/images/logo.eps', 'DATA'),
  ('tcl/tclAppInit.c', '/usr/share/tcltk/tcl8.6/tclAppInit.c', 'DATA'),
  ('tcl/parray.tcl', '/usr/share/tcltk/tcl8.6/parray.tcl', 'DATA'),
  ('tcl/encoding/jis0212.enc',
   '/usr/share/tcltk/tcl8.6/encoding/jis0212.enc',
   'DATA'),
  ('include/python3.6m/pyconfig.h',
   '/home/anand/venvs/kent/include/python3.6m/pyconfig.h',
   'DATA'),
  ('tk/ttk/progress.tcl', '/usr/share/tcltk/tk8.6/ttk/progress.tcl', 'DATA'),
  ('tcl/msgs/ja.msg', '/usr/share/tcltk/tcl8.6/msgs/ja.msg', 'DATA'),
  ('tcl/msgs/ga_ie.msg', '/usr/share/tcltk/tcl8.6/msgs/ga_ie.msg', 'DATA'),
  ('tcl/clock.tcl', '/usr/share/tcltk/tcl8.6/clock.tcl', 'DATA'),
  ('tcl/msgs/sv.msg', '/usr/share/tcltk/tcl8.6/msgs/sv.msg', 'DATA'),
  ('tcl/msgs/es_py.msg', '/usr/share/tcltk/tcl8.6/msgs/es_py.msg', 'DATA'),
  ('tcl/msgs/ta.msg', '/usr/share/tcltk/tcl8.6/msgs/ta.msg', 'DATA'),
  ('tcl/encoding/iso8859-6.enc',
   '/usr/share/tcltk/tcl8.6/encoding/iso8859-6.enc',
   'DATA'),
  ('tcl/encoding/macRomania.enc',
   '/usr/share/tcltk/tcl8.6/encoding/macRomania.enc',
   'DATA'),
  ('tcl/encoding/dingbats.enc',
   '/usr/share/tcltk/tcl8.6/encoding/dingbats.enc',
   'DATA'),
  ('tcl/encoding/euc-cn.enc',
   '/usr/share/tcltk/tcl8.6/encoding/euc-cn.enc',
   'DATA'),
  ('tcl/msgs/zh_sg.msg', '/usr/share/tcltk/tcl8.6/msgs/zh_sg.msg', 'DATA'),
  ('tk/ttk/clamTheme.tcl', '/usr/share/tcltk/tk8.6/ttk/clamTheme.tcl', 'DATA'),
  ('tcl/encoding/iso8859-14.enc',
   '/usr/share/tcltk/tcl8.6/encoding/iso8859-14.enc',
   'DATA'),
  ('tcl/msgs/en_in.msg', '/usr/share/tcltk/tcl8.6/msgs/en_in.msg', 'DATA'),
  ('tcl/encoding/jis0208.enc',
   '/usr/share/tcltk/tcl8.6/encoding/jis0208.enc',
   'DATA'),
  ('tcl/encoding/gb12345.enc',
   '/usr/share/tcltk/tcl8.6/encoding/gb12345.enc',
   'DATA')],)
