('/home/anand/Videos/Tkinter_2/tkinter-project/melody_app/build/melody/PKG-00.pkg',
 {'BINARY': 1,
  'DATA': 1,
  'EXECUTABLE': 1,
  'EXTENSION': 1,
  'PYMODULE': 1,
  'PYSOURCE': 1,
  'PYZ': 0},
 [('PYZ-00.pyz',
   '/home/anand/Videos/Tkinter_2/tkinter-project/melody_app/build/melody/PYZ-00.pyz',
   'PYZ'),
  ('struct', '/home/anand/venvs/kent/lib/python3.6/struct.pyo', 'PYMODULE'),
  ('pyimod01_os_path',
   '/home/anand/venvs/kent/lib/python3.6/site-packages/PyInstaller/loader/pyimod01_os_path.pyc',
   'PYMODULE'),
  ('pyimod02_archive',
   '/home/anand/venvs/kent/lib/python3.6/site-packages/PyInstaller/loader/pyimod02_archive.pyc',
   'PYMODULE'),
  ('pyimod03_importers',
   '/home/anand/venvs/kent/lib/python3.6/site-packages/PyInstaller/loader/pyimod03_importers.pyc',
   'PYMODULE'),
  ('pyiboot01_bootstrap',
   '/home/anand/venvs/kent/lib/python3.6/site-packages/PyInstaller/loader/pyiboot01_bootstrap.py',
   'PYSOURCE'),
  ('pyi_rth_pkgres',
   '/home/anand/venvs/kent/lib/python3.6/site-packages/PyInstaller/loader/rthooks/pyi_rth_pkgres.py',
   'PYSOURCE'),
  ('pyi_rth_multiprocessing',
   '/home/anand/venvs/kent/lib/python3.6/site-packages/PyInstaller/loader/rthooks/pyi_rth_multiprocessing.py',
   'PYSOURCE'),
  ('pyi_rth__tkinter',
   '/home/anand/venvs/kent/lib/python3.6/site-packages/PyInstaller/loader/rthooks/pyi_rth__tkinter.py',
   'PYSOURCE'),
  ('melody',
   '/home/anand/Videos/Tkinter_2/tkinter-project/melody_app/melody.py',
   'PYSOURCE')],
 True,
 False,
 False,
 [])
