('/home/anand/Videos/Tkinter_2/tkinter-project/melody_app/build/melody/PYZ-00.pyz',
 [('multiprocessing.popen_fork',
   '/usr/lib/python3.6/multiprocessing/popen_fork.py',
   'PYMODULE'),
  ('multiprocessing.connection',
   '/usr/lib/python3.6/multiprocessing/connection.py',
   'PYMODULE'),
  ('multiprocessing.resource_sharer',
   '/usr/lib/python3.6/multiprocessing/resource_sharer.py',
   'PYMODULE'),
  ('multiprocessing.process',
   '/usr/lib/python3.6/multiprocessing/process.py',
   'PYMODULE'),
  ('xmlrpc.client', '/usr/lib/python3.6/xmlrpc/client.py', 'PYMODULE'),
  ('xmlrpc', '/usr/lib/python3.6/xmlrpc/__init__.py', 'PYMODULE'),
  ('decimal', '/usr/lib/python3.6/decimal.py', 'PYMODULE'),
  ('_pydecimal', '/usr/lib/python3.6/_pydecimal.py', 'PYMODULE'),
  ('numbers', '/usr/lib/python3.6/numbers.py', 'PYMODULE'),
  ('hmac', '/home/anand/venvs/kent/lib/python3.6/hmac.py', 'PYMODULE'),
  ('multiprocessing.context',
   '/usr/lib/python3.6/multiprocessing/context.py',
   'PYMODULE'),
  ('multiprocessing.popen_forkserver',
   '/usr/lib/python3.6/multiprocessing/popen_forkserver.py',
   'PYMODULE'),
  ('multiprocessing.popen_spawn_posix',
   '/usr/lib/python3.6/multiprocessing/popen_spawn_posix.py',
   'PYMODULE'),
  ('multiprocessing.semaphore_tracker',
   '/usr/lib/python3.6/multiprocessing/semaphore_tracker.py',
   'PYMODULE'),
  ('multiprocessing.forkserver',
   '/usr/lib/python3.6/multiprocessing/forkserver.py',
   'PYMODULE'),
  ('multiprocessing.sharedctypes',
   '/usr/lib/python3.6/multiprocessing/sharedctypes.py',
   'PYMODULE'),
  ('multiprocessing.heap',
   '/usr/lib/python3.6/multiprocessing/heap.py',
   'PYMODULE'),
  ('ctypes', '/usr/lib/python3.6/ctypes/__init__.py', 'PYMODULE'),
  ('ctypes._endian', '/usr/lib/python3.6/ctypes/_endian.py', 'PYMODULE'),
  ('multiprocessing.pool',
   '/usr/lib/python3.6/multiprocessing/pool.py',
   'PYMODULE'),
  ('multiprocessing.dummy',
   '/usr/lib/python3.6/multiprocessing/dummy/__init__.py',
   'PYMODULE'),
  ('multiprocessing.dummy.connection',
   '/usr/lib/python3.6/multiprocessing/dummy/connection.py',
   'PYMODULE'),
  ('queue', '/usr/lib/python3.6/queue.py', 'PYMODULE'),
  ('multiprocessing.queues',
   '/usr/lib/python3.6/multiprocessing/queues.py',
   'PYMODULE'),
  ('multiprocessing.synchronize',
   '/usr/lib/python3.6/multiprocessing/synchronize.py',
   'PYMODULE'),
  ('multiprocessing.managers',
   '/usr/lib/python3.6/multiprocessing/managers.py',
   'PYMODULE'),
  ('multiprocessing.reduction',
   '/usr/lib/python3.6/multiprocessing/reduction.py',
   'PYMODULE'),
  ('multiprocessing.util',
   '/usr/lib/python3.6/multiprocessing/util.py',
   'PYMODULE'),
  ('multiprocessing.popen_spawn_win32',
   '/usr/lib/python3.6/multiprocessing/popen_spawn_win32.py',
   'PYMODULE'),
  ('multiprocessing.spawn',
   '/usr/lib/python3.6/multiprocessing/spawn.py',
   'PYMODULE'),
  ('runpy', '/usr/lib/python3.6/runpy.py', 'PYMODULE'),
  ('multiprocessing',
   '/usr/lib/python3.6/multiprocessing/__init__.py',
   'PYMODULE'),
  ('pkg_resources',
   '/home/anand/venvs/kent/lib/python3.6/site-packages/pkg_resources/__init__.py',
   'PYMODULE'),
  ('pkg_resources._vendor.packaging.utils',
   '/home/anand/venvs/kent/lib/python3.6/site-packages/pkg_resources/_vendor/packaging/utils.py',
   'PYMODULE'),
  ('pkg_resources._vendor.packaging.version',
   '/home/anand/venvs/kent/lib/python3.6/site-packages/pkg_resources/_vendor/packaging/version.py',
   'PYMODULE'),
  ('pkg_resources._vendor.appdirs',
   '/home/anand/venvs/kent/lib/python3.6/site-packages/pkg_resources/_vendor/appdirs.py',
   'PYMODULE'),
  ('pkg_resources._vendor',
   '/home/anand/venvs/kent/lib/python3.6/site-packages/pkg_resources/_vendor/__init__.py',
   'PYMODULE'),
  ('pkg_resources._vendor.packaging._structures',
   '/home/anand/venvs/kent/lib/python3.6/site-packages/pkg_resources/_vendor/packaging/_structures.py',
   'PYMODULE'),
  ('pkg_resources._vendor.packaging',
   '/home/anand/venvs/kent/lib/python3.6/site-packages/pkg_resources/_vendor/packaging/__init__.py',
   'PYMODULE'),
  ('pkg_resources._vendor.packaging.specifiers',
   '/home/anand/venvs/kent/lib/python3.6/site-packages/pkg_resources/_vendor/packaging/specifiers.py',
   'PYMODULE'),
  ('pkg_resources._vendor.packaging.requirements',
   '/home/anand/venvs/kent/lib/python3.6/site-packages/pkg_resources/_vendor/packaging/requirements.py',
   'PYMODULE'),
  ('pkg_resources._vendor.packaging.__about__',
   '/home/anand/venvs/kent/lib/python3.6/site-packages/pkg_resources/_vendor/packaging/__about__.py',
   'PYMODULE'),
  ('pkg_resources._vendor.pyparsing',
   '/home/anand/venvs/kent/lib/python3.6/site-packages/pkg_resources/_vendor/pyparsing.py',
   'PYMODULE'),
  ('uuid', '/usr/lib/python3.6/uuid.py', 'PYMODULE'),
  ('ctypes.util', '/usr/lib/python3.6/ctypes/util.py', 'PYMODULE'),
  ('pkg_resources._vendor.packaging._compat',
   '/home/anand/venvs/kent/lib/python3.6/site-packages/pkg_resources/_vendor/packaging/_compat.py',
   'PYMODULE'),
  ('pkg_resources._vendor.six',
   '/home/anand/venvs/kent/lib/python3.6/site-packages/pkg_resources/_vendor/six.py',
   'PYMODULE'),
  ('pkg_resources._vendor.packaging.markers',
   '/home/anand/venvs/kent/lib/python3.6/site-packages/pkg_resources/_vendor/packaging/markers.py',
   'PYMODULE'),
  ('distutils.util', '/usr/lib/python3.6/distutils/util.py', 'PYMODULE'),
  ('distutils.filelist',
   '/usr/lib/python3.6/distutils/filelist.py',
   'PYMODULE'),
  ('distutils.debug', '/usr/lib/python3.6/distutils/debug.py', 'PYMODULE'),
  ('distutils.file_util',
   '/usr/lib/python3.6/distutils/file_util.py',
   'PYMODULE'),
  ('distutils.dir_util',
   '/usr/lib/python3.6/distutils/dir_util.py',
   'PYMODULE'),
  ('lib2to3.refactor', '/usr/lib/python3.6/lib2to3/refactor.py', 'PYMODULE'),
  ('lib2to3.btm_matcher',
   '/usr/lib/python3.6/lib2to3/btm_matcher.py',
   'PYMODULE'),
  ('lib2to3.btm_utils', '/usr/lib/python3.6/lib2to3/btm_utils.py', 'PYMODULE'),
  ('lib2to3.pgen2.grammar',
   '/usr/lib/python3.6/lib2to3/pgen2/grammar.py',
   'PYMODULE'),
  ('lib2to3.pygram', '/usr/lib/python3.6/lib2to3/pygram.py', 'PYMODULE'),
  ('lib2to3.pytree', '/usr/lib/python3.6/lib2to3/pytree.py', 'PYMODULE'),
  ('lib2to3', '/usr/lib/python3.6/lib2to3/__init__.py', 'PYMODULE'),
  ('lib2to3.patcomp', '/usr/lib/python3.6/lib2to3/patcomp.py', 'PYMODULE'),
  ('lib2to3.pgen2.parse',
   '/usr/lib/python3.6/lib2to3/pgen2/parse.py',
   'PYMODULE'),
  ('lib2to3.pgen2.literals',
   '/usr/lib/python3.6/lib2to3/pgen2/literals.py',
   'PYMODULE'),
  ('lib2to3.fixer_util',
   '/usr/lib/python3.6/lib2to3/fixer_util.py',
   'PYMODULE'),
  ('lib2to3.pgen2.token',
   '/usr/lib/python3.6/lib2to3/pgen2/token.py',
   'PYMODULE'),
  ('lib2to3.pgen2.tokenize',
   '/usr/lib/python3.6/lib2to3/pgen2/tokenize.py',
   'PYMODULE'),
  ('lib2to3.pgen2.driver',
   '/usr/lib/python3.6/lib2to3/pgen2/driver.py',
   'PYMODULE'),
  ('lib2to3.pgen2.pgen',
   '/usr/lib/python3.6/lib2to3/pgen2/pgen.py',
   'PYMODULE'),
  ('lib2to3.pgen2', '/usr/lib/python3.6/lib2to3/pgen2/__init__.py', 'PYMODULE'),
  ('distutils.sysconfig',
   '/usr/lib/python3.6/distutils/sysconfig.py',
   'PYMODULE'),
  ('distutils.text_file',
   '/usr/lib/python3.6/distutils/text_file.py',
   'PYMODULE'),
  ('_osx_support', '/usr/lib/python3.6/_osx_support.py', 'PYMODULE'),
  ('distutils.log', '/usr/lib/python3.6/distutils/log.py', 'PYMODULE'),
  ('distutils', '/usr/lib/python3.6/distutils/__init__.py', 'PYMODULE'),
  ('distutils.archive_util',
   '/usr/lib/python3.6/distutils/archive_util.py',
   'PYMODULE'),
  ('distutils.ccompiler',
   '/usr/lib/python3.6/distutils/ccompiler.py',
   'PYMODULE'),
  ('distutils.fancy_getopt',
   '/usr/lib/python3.6/distutils/fancy_getopt.py',
   'PYMODULE'),
  ('distutils.spawn', '/usr/lib/python3.6/distutils/spawn.py', 'PYMODULE'),
  ('distutils.dep_util',
   '/usr/lib/python3.6/distutils/dep_util.py',
   'PYMODULE'),
  ('distutils.errors', '/usr/lib/python3.6/distutils/errors.py', 'PYMODULE'),
  ('sysconfig', '/usr/lib/python3.6/sysconfig.py', 'PYMODULE'),
  ('_sysconfigdata_m_linux_x86_64-linux-gnu',
   '/usr/lib/python3.6/_sysconfigdata_m_linux_x86_64-linux-gnu.py',
   'PYMODULE'),
  ('pkg_resources.py31compat',
   '/home/anand/venvs/kent/lib/python3.6/site-packages/pkg_resources/py31compat.py',
   'PYMODULE'),
  ('pkg_resources.extern',
   '/home/anand/venvs/kent/lib/python3.6/site-packages/pkg_resources/extern/__init__.py',
   'PYMODULE'),
  ('imp', '/home/anand/venvs/kent/lib/python3.6/imp.py', 'PYMODULE'),
  ('posixpath',
   '/home/anand/venvs/kent/lib/python3.6/posixpath.py',
   'PYMODULE'),
  ('_strptime', '/usr/lib/python3.6/_strptime.py', 'PYMODULE'),
  ('datetime', '/usr/lib/python3.6/datetime.py', 'PYMODULE'),
  ('_compat_pickle', '/usr/lib/python3.6/_compat_pickle.py', 'PYMODULE'),
  ('pickle', '/usr/lib/python3.6/pickle.py', 'PYMODULE'),
  ('tracemalloc', '/usr/lib/python3.6/tracemalloc.py', 'PYMODULE'),
  ('__future__',
   '/home/anand/venvs/kent/lib/python3.6/__future__.py',
   'PYMODULE'),
  ('difflib', '/usr/lib/python3.6/difflib.py', 'PYMODULE'),
  ('ast', '/usr/lib/python3.6/ast.py', 'PYMODULE'),
  ('inspect', '/usr/lib/python3.6/inspect.py', 'PYMODULE'),
  ('cmd', '/usr/lib/python3.6/cmd.py', 'PYMODULE'),
  ('bdb', '/usr/lib/python3.6/bdb.py', 'PYMODULE'),
  ('opcode', '/usr/lib/python3.6/opcode.py', 'PYMODULE'),
  ('dis', '/usr/lib/python3.6/dis.py', 'PYMODULE'),
  ('codeop', '/usr/lib/python3.6/codeop.py', 'PYMODULE'),
  ('code', '/usr/lib/python3.6/code.py', 'PYMODULE'),
  ('glob', '/usr/lib/python3.6/glob.py', 'PYMODULE'),
  ('shlex', '/usr/lib/python3.6/shlex.py', 'PYMODULE'),
  ('importlib._bootstrap',
   '/home/anand/venvs/kent/lib/python3.6/importlib/_bootstrap.py',
   'PYMODULE'),
  ('importlib._bootstrap_external',
   '/home/anand/venvs/kent/lib/python3.6/importlib/_bootstrap_external.py',
   'PYMODULE'),
  ('importlib.machinery',
   '/home/anand/venvs/kent/lib/python3.6/importlib/machinery.py',
   'PYMODULE'),
  ('importlib.util',
   '/home/anand/venvs/kent/lib/python3.6/importlib/util.py',
   'PYMODULE'),
  ('importlib.abc',
   '/home/anand/venvs/kent/lib/python3.6/importlib/abc.py',
   'PYMODULE'),
  ('importlib',
   '/home/anand/venvs/kent/lib/python3.6/importlib/__init__.py',
   'PYMODULE'),
  ('pkgutil', '/usr/lib/python3.6/pkgutil.py', 'PYMODULE'),
  ('xml', '/usr/lib/python3.6/xml/__init__.py', 'PYMODULE'),
  ('xml.sax.expatreader',
   '/usr/lib/python3.6/xml/sax/expatreader.py',
   'PYMODULE'),
  ('xml.sax.saxutils', '/usr/lib/python3.6/xml/sax/saxutils.py', 'PYMODULE'),
  ('urllib.request', '/usr/lib/python3.6/urllib/request.py', 'PYMODULE'),
  ('getpass', '/usr/lib/python3.6/getpass.py', 'PYMODULE'),
  ('nturl2path', '/usr/lib/python3.6/nturl2path.py', 'PYMODULE'),
  ('ftplib', '/usr/lib/python3.6/ftplib.py', 'PYMODULE'),
  ('netrc', '/usr/lib/python3.6/netrc.py', 'PYMODULE'),
  ('http.cookiejar', '/usr/lib/python3.6/http/cookiejar.py', 'PYMODULE'),
  ('urllib.response', '/usr/lib/python3.6/urllib/response.py', 'PYMODULE'),
  ('urllib.error', '/usr/lib/python3.6/urllib/error.py', 'PYMODULE'),
  ('xml.sax', '/usr/lib/python3.6/xml/sax/__init__.py', 'PYMODULE'),
  ('xml.sax.handler', '/usr/lib/python3.6/xml/sax/handler.py', 'PYMODULE'),
  ('xml.sax._exceptions',
   '/usr/lib/python3.6/xml/sax/_exceptions.py',
   'PYMODULE'),
  ('xml.sax.xmlreader', '/usr/lib/python3.6/xml/sax/xmlreader.py', 'PYMODULE'),
  ('xml.parsers', '/usr/lib/python3.6/xml/parsers/__init__.py', 'PYMODULE'),
  ('xml.parsers.expat', '/usr/lib/python3.6/xml/parsers/expat.py', 'PYMODULE'),
  ('plistlib', '/usr/lib/python3.6/plistlib.py', 'PYMODULE'),
  ('platform', '/usr/lib/python3.6/platform.py', 'PYMODULE'),
  ('urllib.parse', '/usr/lib/python3.6/urllib/parse.py', 'PYMODULE'),
  ('tempfile', '/home/anand/venvs/kent/lib/python3.6/tempfile.py', 'PYMODULE'),
  ('tty', '/usr/lib/python3.6/tty.py', 'PYMODULE'),
  ('pydoc_data', '/usr/lib/python3.6/pydoc_data/__init__.py', 'PYMODULE'),
  ('pydoc_data.topics', '/usr/lib/python3.6/pydoc_data/topics.py', 'PYMODULE'),
  ('html.entities', '/usr/lib/python3.6/html/entities.py', 'PYMODULE'),
  ('html', '/usr/lib/python3.6/html/__init__.py', 'PYMODULE'),
  ('ipaddress', '/usr/lib/python3.6/ipaddress.py', 'PYMODULE'),
  ('ssl', '/usr/lib/python3.6/ssl.py', 'PYMODULE'),
  ('http.client', '/usr/lib/python3.6/http/client.py', 'PYMODULE'),
  ('mimetypes', '/usr/lib/python3.6/mimetypes.py', 'PYMODULE'),
  ('socketserver', '/usr/lib/python3.6/socketserver.py', 'PYMODULE'),
  ('http', '/usr/lib/python3.6/http/__init__.py', 'PYMODULE'),
  ('http.server', '/usr/lib/python3.6/http/server.py', 'PYMODULE'),
  ('optparse', '/usr/lib/python3.6/optparse.py', 'PYMODULE'),
  ('uu', '/usr/lib/python3.6/uu.py', 'PYMODULE'),
  ('email.feedparser', '/usr/lib/python3.6/email/feedparser.py', 'PYMODULE'),
  ('email.parser', '/usr/lib/python3.6/email/parser.py', 'PYMODULE'),
  ('email', '/usr/lib/python3.6/email/__init__.py', 'PYMODULE'),
  ('calendar', '/usr/lib/python3.6/calendar.py', 'PYMODULE'),
  ('email._parseaddr', '/usr/lib/python3.6/email/_parseaddr.py', 'PYMODULE'),
  ('email.utils', '/usr/lib/python3.6/email/utils.py', 'PYMODULE'),
  ('email.errors', '/usr/lib/python3.6/email/errors.py', 'PYMODULE'),
  ('email.header', '/usr/lib/python3.6/email/header.py', 'PYMODULE'),
  ('email._policybase', '/usr/lib/python3.6/email/_policybase.py', 'PYMODULE'),
  ('email.base64mime', '/usr/lib/python3.6/email/base64mime.py', 'PYMODULE'),
  ('email.encoders', '/usr/lib/python3.6/email/encoders.py', 'PYMODULE'),
  ('email.charset', '/usr/lib/python3.6/email/charset.py', 'PYMODULE'),
  ('email._encoded_words',
   '/usr/lib/python3.6/email/_encoded_words.py',
   'PYMODULE'),
  ('hashlib', '/home/anand/venvs/kent/lib/python3.6/hashlib.py', 'PYMODULE'),
  ('bisect', '/home/anand/venvs/kent/lib/python3.6/bisect.py', 'PYMODULE'),
  ('random', '/home/anand/venvs/kent/lib/python3.6/random.py', 'PYMODULE'),
  ('email.generator', '/usr/lib/python3.6/email/generator.py', 'PYMODULE'),
  ('email.iterators', '/usr/lib/python3.6/email/iterators.py', 'PYMODULE'),
  ('urllib', '/usr/lib/python3.6/urllib/__init__.py', 'PYMODULE'),
  ('email._header_value_parser',
   '/usr/lib/python3.6/email/_header_value_parser.py',
   'PYMODULE'),
  ('email.headerregistry',
   '/usr/lib/python3.6/email/headerregistry.py',
   'PYMODULE'),
  ('email.quoprimime', '/usr/lib/python3.6/email/quoprimime.py', 'PYMODULE'),
  ('email.contentmanager',
   '/usr/lib/python3.6/email/contentmanager.py',
   'PYMODULE'),
  ('email.policy', '/usr/lib/python3.6/email/policy.py', 'PYMODULE'),
  ('email.message', '/usr/lib/python3.6/email/message.py', 'PYMODULE'),
  ('lzma', '/usr/lib/python3.6/lzma.py', 'PYMODULE'),
  ('gzip', '/usr/lib/python3.6/gzip.py', 'PYMODULE'),
  ('tarfile', '/home/anand/venvs/kent/lib/python3.6/tarfile.py', 'PYMODULE'),
  ('py_compile', '/usr/lib/python3.6/py_compile.py', 'PYMODULE'),
  ('zipfile', '/usr/lib/python3.6/zipfile.py', 'PYMODULE'),
  ('shutil', '/home/anand/venvs/kent/lib/python3.6/shutil.py', 'PYMODULE'),
  ('socket', '/usr/lib/python3.6/socket.py', 'PYMODULE'),
  ('webbrowser', '/usr/lib/python3.6/webbrowser.py', 'PYMODULE'),
  ('pydoc', '/usr/lib/python3.6/pydoc.py', 'PYMODULE'),
  ('pdb', '/usr/lib/python3.6/pdb.py', 'PYMODULE'),
  ('unittest.util', '/usr/lib/python3.6/unittest/util.py', 'PYMODULE'),
  ('unittest.result', '/usr/lib/python3.6/unittest/result.py', 'PYMODULE'),
  ('logging', '/usr/lib/python3.6/logging/__init__.py', 'PYMODULE'),
  ('pprint', '/usr/lib/python3.6/pprint.py', 'PYMODULE'),
  ('unittest.case', '/usr/lib/python3.6/unittest/case.py', 'PYMODULE'),
  ('unittest.suite', '/usr/lib/python3.6/unittest/suite.py', 'PYMODULE'),
  ('fnmatch', '/home/anand/venvs/kent/lib/python3.6/fnmatch.py', 'PYMODULE'),
  ('unittest.loader', '/usr/lib/python3.6/unittest/loader.py', 'PYMODULE'),
  ('unittest.runner', '/usr/lib/python3.6/unittest/runner.py', 'PYMODULE'),
  ('unittest.main', '/usr/lib/python3.6/unittest/main.py', 'PYMODULE'),
  ('unittest.signals', '/usr/lib/python3.6/unittest/signals.py', 'PYMODULE'),
  ('unittest', '/usr/lib/python3.6/unittest/__init__.py', 'PYMODULE'),
  ('doctest', '/usr/lib/python3.6/doctest.py', 'PYMODULE'),
  ('base64', '/home/anand/venvs/kent/lib/python3.6/base64.py', 'PYMODULE'),
  ('getopt', '/usr/lib/python3.6/getopt.py', 'PYMODULE'),
  ('quopri', '/usr/lib/python3.6/quopri.py', 'PYMODULE'),
  ('stringprep', '/usr/lib/python3.6/stringprep.py', 'PYMODULE'),
  ('_compression', '/usr/lib/python3.6/_compression.py', 'PYMODULE'),
  ('bz2', '/usr/lib/python3.6/bz2.py', 'PYMODULE'),
  ('stat', '/home/anand/venvs/kent/lib/python3.6/stat.py', 'PYMODULE'),
  ('genericpath',
   '/home/anand/venvs/kent/lib/python3.6/genericpath.py',
   'PYMODULE'),
  ('string', '/usr/lib/python3.6/string.py', 'PYMODULE'),
  ('ntpath', '/home/anand/venvs/kent/lib/python3.6/ntpath.py', 'PYMODULE'),
  ('signal', '/usr/lib/python3.6/signal.py', 'PYMODULE'),
  ('contextlib', '/usr/lib/python3.6/contextlib.py', 'PYMODULE'),
  ('_threading_local', '/usr/lib/python3.6/_threading_local.py', 'PYMODULE'),
  ('selectors', '/usr/lib/python3.6/selectors.py', 'PYMODULE'),
  ('_dummy_thread',
   '/home/anand/venvs/kent/lib/python3.6/_dummy_thread.py',
   'PYMODULE'),
  ('dummy_threading', '/usr/lib/python3.6/dummy_threading.py', 'PYMODULE'),
  ('subprocess', '/usr/lib/python3.6/subprocess.py', 'PYMODULE'),
  ('token', '/home/anand/venvs/kent/lib/python3.6/token.py', 'PYMODULE'),
  ('textwrap', '/usr/lib/python3.6/textwrap.py', 'PYMODULE'),
  ('struct', '/home/anand/venvs/kent/lib/python3.6/struct.py', 'PYMODULE'),
  ('gettext', '/usr/lib/python3.6/gettext.py', 'PYMODULE'),
  ('argparse', '/usr/lib/python3.6/argparse.py', 'PYMODULE'),
  ('tokenize', '/home/anand/venvs/kent/lib/python3.6/tokenize.py', 'PYMODULE'),
  ('copy', '/home/anand/venvs/kent/lib/python3.6/copy.py', 'PYMODULE'),
  ('tkinter.ttk', '/usr/lib/python3.6/tkinter/ttk.py', 'PYMODULE'),
  ('threading', '/usr/lib/python3.6/threading.py', 'PYMODULE'),
  ('os', '/home/anand/venvs/kent/lib/python3.6/os.py', 'PYMODULE'),
  ('mutagen.mp3',
   '/home/anand/venvs/kent/lib/python3.6/site-packages/mutagen/mp3/__init__.py',
   'PYMODULE'),
  ('mutagen.easyid3',
   '/home/anand/venvs/kent/lib/python3.6/site-packages/mutagen/easyid3.py',
   'PYMODULE'),
  ('mutagen.mp3._util',
   '/home/anand/venvs/kent/lib/python3.6/site-packages/mutagen/mp3/_util.py',
   'PYMODULE'),
  ('mutagen.id3._util',
   '/home/anand/venvs/kent/lib/python3.6/site-packages/mutagen/id3/_util.py',
   'PYMODULE'),
  ('mutagen.id3',
   '/home/anand/venvs/kent/lib/python3.6/site-packages/mutagen/id3/__init__.py',
   'PYMODULE'),
  ('mutagen.id3._tags',
   '/home/anand/venvs/kent/lib/python3.6/site-packages/mutagen/id3/_tags.py',
   'PYMODULE'),
  ('mutagen._tags',
   '/home/anand/venvs/kent/lib/python3.6/site-packages/mutagen/_tags.py',
   'PYMODULE'),
  ('mutagen.id3._id3v1',
   '/home/anand/venvs/kent/lib/python3.6/site-packages/mutagen/id3/_id3v1.py',
   'PYMODULE'),
  ('mutagen.id3._frames',
   '/home/anand/venvs/kent/lib/python3.6/site-packages/mutagen/id3/_frames.py',
   'PYMODULE'),
  ('mutagen._constants',
   '/home/anand/venvs/kent/lib/python3.6/site-packages/mutagen/_constants.py',
   'PYMODULE'),
  ('mutagen.id3._specs',
   '/home/anand/venvs/kent/lib/python3.6/site-packages/mutagen/id3/_specs.py',
   'PYMODULE'),
  ('mutagen.id3._file',
   '/home/anand/venvs/kent/lib/python3.6/site-packages/mutagen/id3/_file.py',
   'PYMODULE'),
  ('mutagen._compat',
   '/home/anand/venvs/kent/lib/python3.6/site-packages/mutagen/_compat.py',
   'PYMODULE'),
  ('mutagen._util',
   '/home/anand/venvs/kent/lib/python3.6/site-packages/mutagen/_util.py',
   'PYMODULE'),
  ('mutagen',
   '/home/anand/venvs/kent/lib/python3.6/site-packages/mutagen/__init__.py',
   'PYMODULE'),
  ('mutagen._file',
   '/home/anand/venvs/kent/lib/python3.6/site-packages/mutagen/_file.py',
   'PYMODULE'),
  ('mutagen.dsf',
   '/home/anand/venvs/kent/lib/python3.6/site-packages/mutagen/dsf.py',
   'PYMODULE'),
  ('mutagen.smf',
   '/home/anand/venvs/kent/lib/python3.6/site-packages/mutagen/smf.py',
   'PYMODULE'),
  ('mutagen.aac',
   '/home/anand/venvs/kent/lib/python3.6/site-packages/mutagen/aac.py',
   'PYMODULE'),
  ('mutagen.aiff',
   '/home/anand/venvs/kent/lib/python3.6/site-packages/mutagen/aiff.py',
   'PYMODULE'),
  ('mutagen.optimfrog',
   '/home/anand/venvs/kent/lib/python3.6/site-packages/mutagen/optimfrog.py',
   'PYMODULE'),
  ('mutagen.monkeysaudio',
   '/home/anand/venvs/kent/lib/python3.6/site-packages/mutagen/monkeysaudio.py',
   'PYMODULE'),
  ('mutagen.musepack',
   '/home/anand/venvs/kent/lib/python3.6/site-packages/mutagen/musepack.py',
   'PYMODULE'),
  ('mutagen.mp4',
   '/home/anand/venvs/kent/lib/python3.6/site-packages/mutagen/mp4/__init__.py',
   'PYMODULE'),
  ('mutagen.mp4._as_entry',
   '/home/anand/venvs/kent/lib/python3.6/site-packages/mutagen/mp4/_as_entry.py',
   'PYMODULE'),
  ('mutagen.mp4._util',
   '/home/anand/venvs/kent/lib/python3.6/site-packages/mutagen/mp4/_util.py',
   'PYMODULE'),
  ('mutagen.mp4._atom',
   '/home/anand/venvs/kent/lib/python3.6/site-packages/mutagen/mp4/_atom.py',
   'PYMODULE'),
  ('mutagen.easymp4',
   '/home/anand/venvs/kent/lib/python3.6/site-packages/mutagen/easymp4.py',
   'PYMODULE'),
  ('mutagen.wavpack',
   '/home/anand/venvs/kent/lib/python3.6/site-packages/mutagen/wavpack.py',
   'PYMODULE'),
  ('mutagen.trueaudio',
   '/home/anand/venvs/kent/lib/python3.6/site-packages/mutagen/trueaudio.py',
   'PYMODULE'),
  ('mutagen.oggopus',
   '/home/anand/venvs/kent/lib/python3.6/site-packages/mutagen/oggopus.py',
   'PYMODULE'),
  ('mutagen.ogg',
   '/home/anand/venvs/kent/lib/python3.6/site-packages/mutagen/ogg.py',
   'PYMODULE'),
  ('mutagen._vorbis',
   '/home/anand/venvs/kent/lib/python3.6/site-packages/mutagen/_vorbis.py',
   'PYMODULE'),
  ('mutagen.oggvorbis',
   '/home/anand/venvs/kent/lib/python3.6/site-packages/mutagen/oggvorbis.py',
   'PYMODULE'),
  ('mutagen.oggtheora',
   '/home/anand/venvs/kent/lib/python3.6/site-packages/mutagen/oggtheora.py',
   'PYMODULE'),
  ('mutagen.oggspeex',
   '/home/anand/venvs/kent/lib/python3.6/site-packages/mutagen/oggspeex.py',
   'PYMODULE'),
  ('mutagen.oggflac',
   '/home/anand/venvs/kent/lib/python3.6/site-packages/mutagen/oggflac.py',
   'PYMODULE'),
  ('mutagen.flac',
   '/home/anand/venvs/kent/lib/python3.6/site-packages/mutagen/flac.py',
   'PYMODULE'),
  ('mutagen.apev2',
   '/home/anand/venvs/kent/lib/python3.6/site-packages/mutagen/apev2.py',
   'PYMODULE'),
  ('mutagen.asf',
   '/home/anand/venvs/kent/lib/python3.6/site-packages/mutagen/asf/__init__.py',
   'PYMODULE'),
  ('mutagen.asf._attrs',
   '/home/anand/venvs/kent/lib/python3.6/site-packages/mutagen/asf/_attrs.py',
   'PYMODULE'),
  ('mutagen.asf._objects',
   '/home/anand/venvs/kent/lib/python3.6/site-packages/mutagen/asf/_objects.py',
   'PYMODULE'),
  ('mutagen.asf._util',
   '/home/anand/venvs/kent/lib/python3.6/site-packages/mutagen/asf/_util.py',
   'PYMODULE'),
  ('tkinter.filedialog',
   '/usr/lib/python3.6/tkinter/filedialog.py',
   'PYMODULE'),
  ('tkinter.commondialog',
   '/usr/lib/python3.6/tkinter/commondialog.py',
   'PYMODULE'),
  ('tkinter.dialog', '/usr/lib/python3.6/tkinter/dialog.py', 'PYMODULE'),
  ('pygame',
   '/home/anand/venvs/kent/lib/python3.6/site-packages/pygame/__init__.py',
   'PYMODULE'),
  ('pygame.colordict',
   '/home/anand/venvs/kent/lib/python3.6/site-packages/pygame/colordict.py',
   'PYMODULE'),
  ('pygame.macosx',
   '/home/anand/venvs/kent/lib/python3.6/site-packages/pygame/macosx.py',
   'PYMODULE'),
  ('pygame.pkgdata',
   '/home/anand/venvs/kent/lib/python3.6/site-packages/pygame/pkgdata.py',
   'PYMODULE'),
  ('numpy',
   '/home/anand/venvs/kent/lib/python3.6/site-packages/numpy/__init__.py',
   'PYMODULE'),
  ('numpy._pytesttester',
   '/home/anand/venvs/kent/lib/python3.6/site-packages/numpy/_pytesttester.py',
   'PYMODULE'),
  ('numpy.distutils.cpuinfo',
   '/home/anand/venvs/kent/lib/python3.6/site-packages/numpy/distutils/cpuinfo.py',
   'PYMODULE'),
  ('numpy.distutils.compat',
   '/home/anand/venvs/kent/lib/python3.6/site-packages/numpy/distutils/compat.py',
   'PYMODULE'),
  ('numpy.distutils',
   '/home/anand/venvs/kent/lib/python3.6/site-packages/numpy/distutils/__init__.py',
   'PYMODULE'),
  ('numpy.distutils.fcompiler',
   '/home/anand/venvs/kent/lib/python3.6/site-packages/numpy/distutils/fcompiler/__init__.py',
   'PYMODULE'),
  ('numpy.distutils.command.config_compiler',
   '/home/anand/venvs/kent/lib/python3.6/site-packages/numpy/distutils/command/config_compiler.py',
   'PYMODULE'),
  ('numpy.distutils.command',
   '/home/anand/venvs/kent/lib/python3.6/site-packages/numpy/distutils/command/__init__.py',
   'PYMODULE'),
  ('numpy.distutils.command.egg_info',
   '/home/anand/venvs/kent/lib/python3.6/site-packages/numpy/distutils/command/egg_info.py',
   'PYMODULE'),
  ('setuptools.command.egg_info',
   '/home/anand/venvs/kent/lib/python3.6/site-packages/setuptools/command/egg_info.py',
   'PYMODULE'),
  ('setuptools.glob',
   '/home/anand/venvs/kent/lib/python3.6/site-packages/setuptools/glob.py',
   'PYMODULE'),
  ('setuptools.unicode_utils',
   '/home/anand/venvs/kent/lib/python3.6/site-packages/setuptools/unicode_utils.py',
   'PYMODULE'),
  ('setuptools.command.bdist_egg',
   '/home/anand/venvs/kent/lib/python3.6/site-packages/setuptools/command/bdist_egg.py',
   'PYMODULE'),
  ('setuptools.extension',
   '/home/anand/venvs/kent/lib/python3.6/site-packages/setuptools/extension.py',
   'PYMODULE'),
  ('setuptools.monkey',
   '/home/anand/venvs/kent/lib/python3.6/site-packages/setuptools/monkey.py',
   'PYMODULE'),
  ('distutils.extension',
   '/usr/lib/python3.6/distutils/extension.py',
   'PYMODULE'),
  ('setuptools.command',
   '/home/anand/venvs/kent/lib/python3.6/site-packages/setuptools/command/__init__.py',
   'PYMODULE'),
  ('setuptools.command.install_scripts',
   '/home/anand/venvs/kent/lib/python3.6/site-packages/setuptools/command/install_scripts.py',
   'PYMODULE'),
  ('setuptools.command.easy_install',
   '/home/anand/venvs/kent/lib/python3.6/site-packages/setuptools/command/easy_install.py',
   'PYMODULE'),
  ('setuptools.dist',
   '/home/anand/venvs/kent/lib/python3.6/site-packages/setuptools/dist.py',
   'PYMODULE'),
  ('setuptools.config',
   '/home/anand/venvs/kent/lib/python3.6/site-packages/setuptools/config.py',
   'PYMODULE'),
  ('setuptools.windows_support',
   '/home/anand/venvs/kent/lib/python3.6/site-packages/setuptools/windows_support.py',
   'PYMODULE'),
  ('setuptools.depends',
   '/home/anand/venvs/kent/lib/python3.6/site-packages/setuptools/depends.py',
   'PYMODULE'),
  ('setuptools.py33compat',
   '/home/anand/venvs/kent/lib/python3.6/site-packages/setuptools/py33compat.py',
   'PYMODULE'),
  ('html.parser', '/usr/lib/python3.6/html/parser.py', 'PYMODULE'),
  ('_markupbase', '/usr/lib/python3.6/_markupbase.py', 'PYMODULE'),
  ('distutils.version', '/usr/lib/python3.6/distutils/version.py', 'PYMODULE'),
  ('distutils.cmd', '/usr/lib/python3.6/distutils/cmd.py', 'PYMODULE'),
  ('setuptools.wheel',
   '/home/anand/venvs/kent/lib/python3.6/site-packages/setuptools/wheel.py',
   'PYMODULE'),
  ('setuptools.pep425tags',
   '/home/anand/venvs/kent/lib/python3.6/site-packages/setuptools/pep425tags.py',
   'PYMODULE'),
  ('setuptools.glibc',
   '/home/anand/venvs/kent/lib/python3.6/site-packages/setuptools/glibc.py',
   'PYMODULE'),
  ('setuptools.package_index',
   '/home/anand/venvs/kent/lib/python3.6/site-packages/setuptools/package_index.py',
   'PYMODULE'),
  ('setuptools.ssl_support',
   '/home/anand/venvs/kent/lib/python3.6/site-packages/setuptools/ssl_support.py',
   'PYMODULE'),
  ('setuptools.archive_util',
   '/home/anand/venvs/kent/lib/python3.6/site-packages/setuptools/archive_util.py',
   'PYMODULE'),
  ('setuptools.py27compat',
   '/home/anand/venvs/kent/lib/python3.6/site-packages/setuptools/py27compat.py',
   'PYMODULE'),
  ('setuptools.sandbox',
   '/home/anand/venvs/kent/lib/python3.6/site-packages/setuptools/sandbox.py',
   'PYMODULE'),
  ('configparser', '/usr/lib/python3.6/configparser.py', 'PYMODULE'),
  ('site',
   '/home/anand/venvs/kent/lib/python3.6/site-packages/PyInstaller/fake-modules/site.py',
   'PYMODULE'),
  ('distutils.command.build_scripts',
   '/usr/lib/python3.6/distutils/command/build_scripts.py',
   'PYMODULE'),
  ('distutils.command',
   '/usr/lib/python3.6/distutils/command/__init__.py',
   'PYMODULE'),
  ('distutils.command.install',
   '/usr/lib/python3.6/distutils/command/install.py',
   'PYMODULE'),
  ('distutils.command.install_scripts',
   '/usr/lib/python3.6/distutils/command/install_scripts.py',
   'PYMODULE'),
  ('distutils.command.bdist',
   '/usr/lib/python3.6/distutils/command/bdist.py',
   'PYMODULE'),
  ('setuptools.command.setopt',
   '/home/anand/venvs/kent/lib/python3.6/site-packages/setuptools/command/setopt.py',
   'PYMODULE'),
  ('setuptools.command.sdist',
   '/home/anand/venvs/kent/lib/python3.6/site-packages/setuptools/command/sdist.py',
   'PYMODULE'),
  ('setuptools.command.py36compat',
   '/home/anand/venvs/kent/lib/python3.6/site-packages/setuptools/command/py36compat.py',
   'PYMODULE'),
  ('distutils.command.sdist',
   '/usr/lib/python3.6/distutils/command/sdist.py',
   'PYMODULE'),
  ('setuptools',
   '/home/anand/venvs/kent/lib/python3.6/site-packages/setuptools/__init__.py',
   'PYMODULE'),
  ('setuptools._vendor.packaging',
   '/home/anand/venvs/kent/lib/python3.6/site-packages/setuptools/_vendor/packaging/__init__.py',
   'PYMODULE'),
  ('setuptools._vendor.packaging.utils',
   '/home/anand/venvs/kent/lib/python3.6/site-packages/setuptools/_vendor/packaging/utils.py',
   'PYMODULE'),
  ('setuptools._vendor.packaging.version',
   '/home/anand/venvs/kent/lib/python3.6/site-packages/setuptools/_vendor/packaging/version.py',
   'PYMODULE'),
  ('setuptools._vendor.packaging.specifiers',
   '/home/anand/venvs/kent/lib/python3.6/site-packages/setuptools/_vendor/packaging/specifiers.py',
   'PYMODULE'),
  ('setuptools._vendor',
   '/home/anand/venvs/kent/lib/python3.6/site-packages/setuptools/_vendor/__init__.py',
   'PYMODULE'),
  ('setuptools._vendor.packaging._structures',
   '/home/anand/venvs/kent/lib/python3.6/site-packages/setuptools/_vendor/packaging/_structures.py',
   'PYMODULE'),
  ('setuptools._vendor.packaging.__about__',
   '/home/anand/venvs/kent/lib/python3.6/site-packages/setuptools/_vendor/packaging/__about__.py',
   'PYMODULE'),
  ('setuptools._vendor.six',
   '/home/anand/venvs/kent/lib/python3.6/site-packages/setuptools/_vendor/six.py',
   'PYMODULE'),
  ('setuptools._vendor.pyparsing',
   '/home/anand/venvs/kent/lib/python3.6/site-packages/setuptools/_vendor/pyparsing.py',
   'PYMODULE'),
  ('setuptools._vendor.packaging.markers',
   '/home/anand/venvs/kent/lib/python3.6/site-packages/setuptools/_vendor/packaging/markers.py',
   'PYMODULE'),
  ('setuptools._vendor.packaging.requirements',
   '/home/anand/venvs/kent/lib/python3.6/site-packages/setuptools/_vendor/packaging/requirements.py',
   'PYMODULE'),
  ('setuptools._vendor.packaging._compat',
   '/home/anand/venvs/kent/lib/python3.6/site-packages/setuptools/_vendor/packaging/_compat.py',
   'PYMODULE'),
  ('setuptools.msvc',
   '/home/anand/venvs/kent/lib/python3.6/site-packages/setuptools/msvc.py',
   'PYMODULE'),
  ('distutils.msvc9compiler',
   '/usr/lib/python3.6/distutils/msvc9compiler.py',
   'PYMODULE'),
  ('distutils.command.build_ext',
   '/usr/lib/python3.6/distutils/command/build_ext.py',
   'PYMODULE'),
  ('distutils._msvccompiler',
   '/usr/lib/python3.6/distutils/_msvccompiler.py',
   'PYMODULE'),
  ('concurrent.futures',
   '/usr/lib/python3.6/concurrent/futures/__init__.py',
   'PYMODULE'),
  ('concurrent.futures.thread',
   '/usr/lib/python3.6/concurrent/futures/thread.py',
   'PYMODULE'),
  ('concurrent.futures.process',
   '/usr/lib/python3.6/concurrent/futures/process.py',
   'PYMODULE'),
  ('concurrent.futures._base',
   '/usr/lib/python3.6/concurrent/futures/_base.py',
   'PYMODULE'),
  ('concurrent', '/usr/lib/python3.6/concurrent/__init__.py', 'PYMODULE'),
  ('setuptools.namespaces',
   '/home/anand/venvs/kent/lib/python3.6/site-packages/setuptools/namespaces.py',
   'PYMODULE'),
  ('setuptools.version',
   '/home/anand/venvs/kent/lib/python3.6/site-packages/setuptools/version.py',
   'PYMODULE'),
  ('setuptools._deprecation_warning',
   '/home/anand/venvs/kent/lib/python3.6/site-packages/setuptools/_deprecation_warning.py',
   'PYMODULE'),
  ('setuptools.extern',
   '/home/anand/venvs/kent/lib/python3.6/site-packages/setuptools/extern/__init__.py',
   'PYMODULE'),
  ('numpy.distutils.command.develop',
   '/home/anand/venvs/kent/lib/python3.6/site-packages/numpy/distutils/command/develop.py',
   'PYMODULE'),
  ('setuptools.command.develop',
   '/home/anand/venvs/kent/lib/python3.6/site-packages/setuptools/command/develop.py',
   'PYMODULE'),
  ('numpy.distutils.command.install_clib',
   '/home/anand/venvs/kent/lib/python3.6/site-packages/numpy/distutils/command/install_clib.py',
   'PYMODULE'),
  ('numpy.distutils.command.bdist_rpm',
   '/home/anand/venvs/kent/lib/python3.6/site-packages/numpy/distutils/command/bdist_rpm.py',
   'PYMODULE'),
  ('distutils.command.bdist_rpm',
   '/usr/lib/python3.6/distutils/command/bdist_rpm.py',
   'PYMODULE'),
  ('setuptools.command.bdist_rpm',
   '/home/anand/venvs/kent/lib/python3.6/site-packages/setuptools/command/bdist_rpm.py',
   'PYMODULE'),
  ('numpy.distutils.command.install',
   '/home/anand/venvs/kent/lib/python3.6/site-packages/numpy/distutils/command/install.py',
   'PYMODULE'),
  ('setuptools.command.install',
   '/home/anand/venvs/kent/lib/python3.6/site-packages/setuptools/command/install.py',
   'PYMODULE'),
  ('numpy.distutils.command.install_headers',
   '/home/anand/venvs/kent/lib/python3.6/site-packages/numpy/distutils/command/install_headers.py',
   'PYMODULE'),
  ('distutils.command.install_headers',
   '/usr/lib/python3.6/distutils/command/install_headers.py',
   'PYMODULE'),
  ('numpy.distutils.command.install_data',
   '/home/anand/venvs/kent/lib/python3.6/site-packages/numpy/distutils/command/install_data.py',
   'PYMODULE'),
  ('distutils.command.install_data',
   '/usr/lib/python3.6/distutils/command/install_data.py',
   'PYMODULE'),
  ('numpy.distutils.command.sdist',
   '/home/anand/venvs/kent/lib/python3.6/site-packages/numpy/distutils/command/sdist.py',
   'PYMODULE'),
  ('numpy.distutils.command.build_scripts',
   '/home/anand/venvs/kent/lib/python3.6/site-packages/numpy/distutils/command/build_scripts.py',
   'PYMODULE'),
  ('numpy.distutils.command.build_clib',
   '/home/anand/venvs/kent/lib/python3.6/site-packages/numpy/distutils/command/build_clib.py',
   'PYMODULE'),
  ('distutils.command.build_clib',
   '/usr/lib/python3.6/distutils/command/build_clib.py',
   'PYMODULE'),
  ('numpy.distutils.command.build_ext',
   '/home/anand/venvs/kent/lib/python3.6/site-packages/numpy/distutils/command/build_ext.py',
   'PYMODULE'),
  ('numpy.distutils.system_info',
   '/home/anand/venvs/kent/lib/python3.6/site-packages/numpy/distutils/system_info.py',
   'PYMODULE'),
  ('numpy.f2py',
   '/home/anand/venvs/kent/lib/python3.6/site-packages/numpy/f2py/__init__.py',
   'PYMODULE'),
  ('numpy.f2py.diagnose',
   '/home/anand/venvs/kent/lib/python3.6/site-packages/numpy/f2py/diagnose.py',
   'PYMODULE'),
  ('numpy.f2py.f2py_testing',
   '/home/anand/venvs/kent/lib/python3.6/site-packages/numpy/f2py/f2py_testing.py',
   'PYMODULE'),
  ('numpy.f2py.f2py2e',
   '/home/anand/venvs/kent/lib/python3.6/site-packages/numpy/f2py/f2py2e.py',
   'PYMODULE'),
  ('numpy.distutils.command.build_src',
   '/home/anand/venvs/kent/lib/python3.6/site-packages/numpy/distutils/command/build_src.py',
   'PYMODULE'),
  ('numpy.distutils.conv_template',
   '/home/anand/venvs/kent/lib/python3.6/site-packages/numpy/distutils/conv_template.py',
   'PYMODULE'),
  ('numpy.distutils.from_template',
   '/home/anand/venvs/kent/lib/python3.6/site-packages/numpy/distutils/from_template.py',
   'PYMODULE'),
  ('numpy.f2py.auxfuncs',
   '/home/anand/venvs/kent/lib/python3.6/site-packages/numpy/f2py/auxfuncs.py',
   'PYMODULE'),
  ('numpy.f2py.f90mod_rules',
   '/home/anand/venvs/kent/lib/python3.6/site-packages/numpy/f2py/f90mod_rules.py',
   'PYMODULE'),
  ('numpy.f2py.rules',
   '/home/anand/venvs/kent/lib/python3.6/site-packages/numpy/f2py/rules.py',
   'PYMODULE'),
  ('numpy.f2py.use_rules',
   '/home/anand/venvs/kent/lib/python3.6/site-packages/numpy/f2py/use_rules.py',
   'PYMODULE'),
  ('numpy.f2py.common_rules',
   '/home/anand/venvs/kent/lib/python3.6/site-packages/numpy/f2py/common_rules.py',
   'PYMODULE'),
  ('numpy.f2py.func2subr',
   '/home/anand/venvs/kent/lib/python3.6/site-packages/numpy/f2py/func2subr.py',
   'PYMODULE'),
  ('numpy.f2py.crackfortran',
   '/home/anand/venvs/kent/lib/python3.6/site-packages/numpy/f2py/crackfortran.py',
   'PYMODULE'),
  ('fileinput', '/usr/lib/python3.6/fileinput.py', 'PYMODULE'),
  ('numpy.f2py.cb_rules',
   '/home/anand/venvs/kent/lib/python3.6/site-packages/numpy/f2py/cb_rules.py',
   'PYMODULE'),
  ('numpy.f2py.capi_maps',
   '/home/anand/venvs/kent/lib/python3.6/site-packages/numpy/f2py/capi_maps.py',
   'PYMODULE'),
  ('numpy.f2py.cfuncs',
   '/home/anand/venvs/kent/lib/python3.6/site-packages/numpy/f2py/cfuncs.py',
   'PYMODULE'),
  ('numpy.f2py.__version__',
   '/home/anand/venvs/kent/lib/python3.6/site-packages/numpy/f2py/__version__.py',
   'PYMODULE'),
  ('numpy.distutils.command.build_py',
   '/home/anand/venvs/kent/lib/python3.6/site-packages/numpy/distutils/command/build_py.py',
   'PYMODULE'),
  ('distutils.command.build_py',
   '/usr/lib/python3.6/distutils/command/build_py.py',
   'PYMODULE'),
  ('numpy.distutils.command.build',
   '/home/anand/venvs/kent/lib/python3.6/site-packages/numpy/distutils/command/build.py',
   'PYMODULE'),
  ('distutils.command.build',
   '/usr/lib/python3.6/distutils/command/build.py',
   'PYMODULE'),
  ('numpy.distutils.command.config',
   '/home/anand/venvs/kent/lib/python3.6/site-packages/numpy/distutils/command/config.py',
   'PYMODULE'),
  ('numpy.distutils.command.autodist',
   '/home/anand/venvs/kent/lib/python3.6/site-packages/numpy/distutils/command/autodist.py',
   'PYMODULE'),
  ('numpy.distutils.mingw32ccompiler',
   '/home/anand/venvs/kent/lib/python3.6/site-packages/numpy/distutils/mingw32ccompiler.py',
   'PYMODULE'),
  ('distutils.msvccompiler',
   '/usr/lib/python3.6/distutils/msvccompiler.py',
   'PYMODULE'),
  ('distutils.unixccompiler',
   '/usr/lib/python3.6/distutils/unixccompiler.py',
   'PYMODULE'),
  ('distutils.cygwinccompiler',
   '/usr/lib/python3.6/distutils/cygwinccompiler.py',
   'PYMODULE'),
  ('distutils.command.config',
   '/usr/lib/python3.6/distutils/command/config.py',
   'PYMODULE'),
  ('distutils.core', '/usr/lib/python3.6/distutils/core.py', 'PYMODULE'),
  ('distutils.config', '/usr/lib/python3.6/distutils/config.py', 'PYMODULE'),
  ('cgi', '/usr/lib/python3.6/cgi.py', 'PYMODULE'),
  ('distutils.dist', '/usr/lib/python3.6/distutils/dist.py', 'PYMODULE'),
  ('distutils.versionpredicate',
   '/usr/lib/python3.6/distutils/versionpredicate.py',
   'PYMODULE'),
  ('numpy.distutils.core',
   '/home/anand/venvs/kent/lib/python3.6/site-packages/numpy/distutils/core.py',
   'PYMODULE'),
  ('numpy.distutils.numpy_distribution',
   '/home/anand/venvs/kent/lib/python3.6/site-packages/numpy/distutils/numpy_distribution.py',
   'PYMODULE'),
  ('numpy.distutils.extension',
   '/home/anand/venvs/kent/lib/python3.6/site-packages/numpy/distutils/extension.py',
   'PYMODULE'),
  ('numpy.distutils.fcompiler.environment',
   '/home/anand/venvs/kent/lib/python3.6/site-packages/numpy/distutils/fcompiler/environment.py',
   'PYMODULE'),
  ('numpy.distutils.exec_command',
   '/home/anand/venvs/kent/lib/python3.6/site-packages/numpy/distutils/exec_command.py',
   'PYMODULE'),
  ('numpy.distutils.misc_util',
   '/home/anand/venvs/kent/lib/python3.6/site-packages/numpy/distutils/misc_util.py',
   'PYMODULE'),
  ('curses', '/usr/lib/python3.6/curses/__init__.py', 'PYMODULE'),
  ('curses.has_key', '/usr/lib/python3.6/curses/has_key.py', 'PYMODULE'),
  ('numpy.distutils.__config__',
   '/home/anand/venvs/kent/lib/python3.6/site-packages/numpy/distutils/__config__.py',
   'PYMODULE'),
  ('numpy.distutils.npy_pkg_config',
   '/home/anand/venvs/kent/lib/python3.6/site-packages/numpy/distutils/npy_pkg_config.py',
   'PYMODULE'),
  ('numpy.distutils.info',
   '/home/anand/venvs/kent/lib/python3.6/site-packages/numpy/distutils/info.py',
   'PYMODULE'),
  ('numpy.distutils.unixccompiler',
   '/home/anand/venvs/kent/lib/python3.6/site-packages/numpy/distutils/unixccompiler.py',
   'PYMODULE'),
  ('numpy.distutils.ccompiler',
   '/home/anand/venvs/kent/lib/python3.6/site-packages/numpy/distutils/ccompiler.py',
   'PYMODULE'),
  ('numpy.distutils._shell_utils',
   '/home/anand/venvs/kent/lib/python3.6/site-packages/numpy/distutils/_shell_utils.py',
   'PYMODULE'),
  ('pipes', '/usr/lib/python3.6/pipes.py', 'PYMODULE'),
  ('numpy.distutils.lib2def',
   '/home/anand/venvs/kent/lib/python3.6/site-packages/numpy/distutils/lib2def.py',
   'PYMODULE'),
  ('numpy.distutils.log',
   '/home/anand/venvs/kent/lib/python3.6/site-packages/numpy/distutils/log.py',
   'PYMODULE'),
  ('numpy.distutils.__version__',
   '/home/anand/venvs/kent/lib/python3.6/site-packages/numpy/distutils/__version__.py',
   'PYMODULE'),
  ('numpy.testing',
   '/home/anand/venvs/kent/lib/python3.6/site-packages/numpy/testing/__init__.py',
   'PYMODULE'),
  ('numpy.testing._private.nosetester',
   '/home/anand/venvs/kent/lib/python3.6/site-packages/numpy/testing/_private/nosetester.py',
   'PYMODULE'),
  ('scipy',
   '/home/anand/venvs/kent/lib/python3.6/site-packages/scipy/__init__.py',
   'PYMODULE'),
  ('scipy._lib',
   '/home/anand/venvs/kent/lib/python3.6/site-packages/scipy/_lib/__init__.py',
   'PYMODULE'),
  ('scipy._lib._testutils',
   '/home/anand/venvs/kent/lib/python3.6/site-packages/scipy/_lib/_testutils.py',
   'PYMODULE'),
  ('scipy._lib._ccallback',
   '/home/anand/venvs/kent/lib/python3.6/site-packages/scipy/_lib/_ccallback.py',
   'PYMODULE'),
  ('scipy._lib._version',
   '/home/anand/venvs/kent/lib/python3.6/site-packages/scipy/_lib/_version.py',
   'PYMODULE'),
  ('scipy._lib.six',
   '/home/anand/venvs/kent/lib/python3.6/site-packages/scipy/_lib/six.py',
   'PYMODULE'),
  ('scipy.version',
   '/home/anand/venvs/kent/lib/python3.6/site-packages/scipy/version.py',
   'PYMODULE'),
  ('scipy.__config__',
   '/home/anand/venvs/kent/lib/python3.6/site-packages/scipy/__config__.py',
   'PYMODULE'),
  ('scipy._distributor_init',
   '/home/anand/venvs/kent/lib/python3.6/site-packages/scipy/_distributor_init.py',
   'PYMODULE'),
  ('numpy.lib.scimath',
   '/home/anand/venvs/kent/lib/python3.6/site-packages/numpy/lib/scimath.py',
   'PYMODULE'),
  ('numpy.lib.type_check',
   '/home/anand/venvs/kent/lib/python3.6/site-packages/numpy/lib/type_check.py',
   'PYMODULE'),
  ('numpy.core.getlimits',
   '/home/anand/venvs/kent/lib/python3.6/site-packages/numpy/core/getlimits.py',
   'PYMODULE'),
  ('numpy.core.umath',
   '/home/anand/venvs/kent/lib/python3.6/site-packages/numpy/core/umath.py',
   'PYMODULE'),
  ('numpy.core.machar',
   '/home/anand/venvs/kent/lib/python3.6/site-packages/numpy/core/machar.py',
   'PYMODULE'),
  ('numpy.core._ufunc_config',
   '/home/anand/venvs/kent/lib/python3.6/site-packages/numpy/core/_ufunc_config.py',
   'PYMODULE'),
  ('numpy.core.fromnumeric',
   '/home/anand/venvs/kent/lib/python3.6/site-packages/numpy/core/fromnumeric.py',
   'PYMODULE'),
  ('numpy.core._methods',
   '/home/anand/venvs/kent/lib/python3.6/site-packages/numpy/core/_methods.py',
   'PYMODULE'),
  ('numpy.core._exceptions',
   '/home/anand/venvs/kent/lib/python3.6/site-packages/numpy/core/_exceptions.py',
   'PYMODULE'),
  ('numpy.core._asarray',
   '/home/anand/venvs/kent/lib/python3.6/site-packages/numpy/core/_asarray.py',
   'PYMODULE'),
  ('numpy.core.multiarray',
   '/home/anand/venvs/kent/lib/python3.6/site-packages/numpy/core/multiarray.py',
   'PYMODULE'),
  ('numpy.lib.ufunclike',
   '/home/anand/venvs/kent/lib/python3.6/site-packages/numpy/lib/ufunclike.py',
   'PYMODULE'),
  ('numpy.core.overrides',
   '/home/anand/venvs/kent/lib/python3.6/site-packages/numpy/core/overrides.py',
   'PYMODULE'),
  ('numpy.compat._inspect',
   '/home/anand/venvs/kent/lib/python3.6/site-packages/numpy/compat/_inspect.py',
   'PYMODULE'),
  ('numpy.core.numerictypes',
   '/home/anand/venvs/kent/lib/python3.6/site-packages/numpy/core/numerictypes.py',
   'PYMODULE'),
  ('numpy.core._dtype',
   '/home/anand/venvs/kent/lib/python3.6/site-packages/numpy/core/_dtype.py',
   'PYMODULE'),
  ('numpy.core._type_aliases',
   '/home/anand/venvs/kent/lib/python3.6/site-packages/numpy/core/_type_aliases.py',
   'PYMODULE'),
  ('numpy.core._string_helpers',
   '/home/anand/venvs/kent/lib/python3.6/site-packages/numpy/core/_string_helpers.py',
   'PYMODULE'),
  ('numpy.core.numeric',
   '/home/anand/venvs/kent/lib/python3.6/site-packages/numpy/core/numeric.py',
   'PYMODULE'),
  ('numpy.core.arrayprint',
   '/home/anand/venvs/kent/lib/python3.6/site-packages/numpy/core/arrayprint.py',
   'PYMODULE'),
  ('numpy.testing._private.noseclasses',
   '/home/anand/venvs/kent/lib/python3.6/site-packages/numpy/testing/_private/noseclasses.py',
   'PYMODULE'),
  ('numpy.testing._private.decorators',
   '/home/anand/venvs/kent/lib/python3.6/site-packages/numpy/testing/_private/decorators.py',
   'PYMODULE'),
  ('numpy.testing._private.parameterized',
   '/home/anand/venvs/kent/lib/python3.6/site-packages/numpy/testing/_private/parameterized.py',
   'PYMODULE'),
  ('numpy.testing._private',
   '/home/anand/venvs/kent/lib/python3.6/site-packages/numpy/testing/_private/__init__.py',
   'PYMODULE'),
  ('numpy.testing._private.utils',
   '/home/anand/venvs/kent/lib/python3.6/site-packages/numpy/testing/_private/utils.py',
   'PYMODULE'),
  ('numpy.lib.utils',
   '/home/anand/venvs/kent/lib/python3.6/site-packages/numpy/lib/utils.py',
   'PYMODULE'),
  ('numpy.matrixlib',
   '/home/anand/venvs/kent/lib/python3.6/site-packages/numpy/matrixlib/__init__.py',
   'PYMODULE'),
  ('numpy.matrixlib.defmatrix',
   '/home/anand/venvs/kent/lib/python3.6/site-packages/numpy/matrixlib/defmatrix.py',
   'PYMODULE'),
  ('numpy.dual',
   '/home/anand/venvs/kent/lib/python3.6/site-packages/numpy/dual.py',
   'PYMODULE'),
  ('numpy.ma',
   '/home/anand/venvs/kent/lib/python3.6/site-packages/numpy/ma/__init__.py',
   'PYMODULE'),
  ('numpy.ma.extras',
   '/home/anand/venvs/kent/lib/python3.6/site-packages/numpy/ma/extras.py',
   'PYMODULE'),
  ('numpy.lib.index_tricks',
   '/home/anand/venvs/kent/lib/python3.6/site-packages/numpy/lib/index_tricks.py',
   'PYMODULE'),
  ('numpy.lib.stride_tricks',
   '/home/anand/venvs/kent/lib/python3.6/site-packages/numpy/lib/stride_tricks.py',
   'PYMODULE'),
  ('numpy.lib.function_base',
   '/home/anand/venvs/kent/lib/python3.6/site-packages/numpy/lib/function_base.py',
   'PYMODULE'),
  ('numpy.lib.histograms',
   '/home/anand/venvs/kent/lib/python3.6/site-packages/numpy/lib/histograms.py',
   'PYMODULE'),
  ('numpy.compat.py3k',
   '/home/anand/venvs/kent/lib/python3.6/site-packages/numpy/compat/py3k.py',
   'PYMODULE'),
  ('pathlib', '/usr/lib/python3.6/pathlib.py', 'PYMODULE'),
  ('numpy.lib.twodim_base',
   '/home/anand/venvs/kent/lib/python3.6/site-packages/numpy/lib/twodim_base.py',
   'PYMODULE'),
  ('numpy.core.function_base',
   '/home/anand/venvs/kent/lib/python3.6/site-packages/numpy/core/function_base.py',
   'PYMODULE'),
  ('numpy.ma.core',
   '/home/anand/venvs/kent/lib/python3.6/site-packages/numpy/ma/core.py',
   'PYMODULE'),
  ('numpy.core._internal',
   '/home/anand/venvs/kent/lib/python3.6/site-packages/numpy/core/_internal.py',
   'PYMODULE'),
  ('numpy.ctypeslib',
   '/home/anand/venvs/kent/lib/python3.6/site-packages/numpy/ctypeslib.py',
   'PYMODULE'),
  ('numpy.random',
   '/home/anand/venvs/kent/lib/python3.6/site-packages/numpy/random/__init__.py',
   'PYMODULE'),
  ('numpy.random._pickle',
   '/home/anand/venvs/kent/lib/python3.6/site-packages/numpy/random/_pickle.py',
   'PYMODULE'),
  ('numpy.polynomial',
   '/home/anand/venvs/kent/lib/python3.6/site-packages/numpy/polynomial/__init__.py',
   'PYMODULE'),
  ('numpy.polynomial.laguerre',
   '/home/anand/venvs/kent/lib/python3.6/site-packages/numpy/polynomial/laguerre.py',
   'PYMODULE'),
  ('numpy.polynomial._polybase',
   '/home/anand/venvs/kent/lib/python3.6/site-packages/numpy/polynomial/_polybase.py',
   'PYMODULE'),
  ('numpy.polynomial.hermite_e',
   '/home/anand/venvs/kent/lib/python3.6/site-packages/numpy/polynomial/hermite_e.py',
   'PYMODULE'),
  ('numpy.polynomial.hermite',
   '/home/anand/venvs/kent/lib/python3.6/site-packages/numpy/polynomial/hermite.py',
   'PYMODULE'),
  ('numpy.polynomial.legendre',
   '/home/anand/venvs/kent/lib/python3.6/site-packages/numpy/polynomial/legendre.py',
   'PYMODULE'),
  ('numpy.polynomial.chebyshev',
   '/home/anand/venvs/kent/lib/python3.6/site-packages/numpy/polynomial/chebyshev.py',
   'PYMODULE'),
  ('numpy.polynomial.polynomial',
   '/home/anand/venvs/kent/lib/python3.6/site-packages/numpy/polynomial/polynomial.py',
   'PYMODULE'),
  ('numpy.polynomial.polyutils',
   '/home/anand/venvs/kent/lib/python3.6/site-packages/numpy/polynomial/polyutils.py',
   'PYMODULE'),
  ('numpy.fft',
   '/home/anand/venvs/kent/lib/python3.6/site-packages/numpy/fft/__init__.py',
   'PYMODULE'),
  ('numpy.fft.helper',
   '/home/anand/venvs/kent/lib/python3.6/site-packages/numpy/fft/helper.py',
   'PYMODULE'),
  ('numpy.fft.pocketfft',
   '/home/anand/venvs/kent/lib/python3.6/site-packages/numpy/fft/pocketfft.py',
   'PYMODULE'),
  ('numpy.fft.info',
   '/home/anand/venvs/kent/lib/python3.6/site-packages/numpy/fft/info.py',
   'PYMODULE'),
  ('numpy.linalg',
   '/home/anand/venvs/kent/lib/python3.6/site-packages/numpy/linalg/__init__.py',
   'PYMODULE'),
  ('numpy.linalg.linalg',
   '/home/anand/venvs/kent/lib/python3.6/site-packages/numpy/linalg/linalg.py',
   'PYMODULE'),
  ('numpy.linalg.info',
   '/home/anand/venvs/kent/lib/python3.6/site-packages/numpy/linalg/info.py',
   'PYMODULE'),
  ('numpy.lib',
   '/home/anand/venvs/kent/lib/python3.6/site-packages/numpy/lib/__init__.py',
   'PYMODULE'),
  ('numpy.lib._version',
   '/home/anand/venvs/kent/lib/python3.6/site-packages/numpy/lib/_version.py',
   'PYMODULE'),
  ('numpy.lib.arraypad',
   '/home/anand/venvs/kent/lib/python3.6/site-packages/numpy/lib/arraypad.py',
   'PYMODULE'),
  ('numpy.lib.arrayterator',
   '/home/anand/venvs/kent/lib/python3.6/site-packages/numpy/lib/arrayterator.py',
   'PYMODULE'),
  ('numpy.lib.financial',
   '/home/anand/venvs/kent/lib/python3.6/site-packages/numpy/lib/financial.py',
   'PYMODULE'),
  ('numpy.lib.npyio',
   '/home/anand/venvs/kent/lib/python3.6/site-packages/numpy/lib/npyio.py',
   'PYMODULE'),
  ('numpy.ma.mrecords',
   '/home/anand/venvs/kent/lib/python3.6/site-packages/numpy/ma/mrecords.py',
   'PYMODULE'),
  ('numpy.core.records',
   '/home/anand/venvs/kent/lib/python3.6/site-packages/numpy/core/records.py',
   'PYMODULE'),
  ('numpy.lib._iotools',
   '/home/anand/venvs/kent/lib/python3.6/site-packages/numpy/lib/_iotools.py',
   'PYMODULE'),
  ('numpy.lib._datasource',
   '/home/anand/venvs/kent/lib/python3.6/site-packages/numpy/lib/_datasource.py',
   'PYMODULE'),
  ('numpy.lib.format',
   '/home/anand/venvs/kent/lib/python3.6/site-packages/numpy/lib/format.py',
   'PYMODULE'),
  ('numpy.lib.arraysetops',
   '/home/anand/venvs/kent/lib/python3.6/site-packages/numpy/lib/arraysetops.py',
   'PYMODULE'),
  ('numpy.lib.polynomial',
   '/home/anand/venvs/kent/lib/python3.6/site-packages/numpy/lib/polynomial.py',
   'PYMODULE'),
  ('numpy.lib.shape_base',
   '/home/anand/venvs/kent/lib/python3.6/site-packages/numpy/lib/shape_base.py',
   'PYMODULE'),
  ('numpy.core.shape_base',
   '/home/anand/venvs/kent/lib/python3.6/site-packages/numpy/core/shape_base.py',
   'PYMODULE'),
  ('numpy.lib.nanfunctions',
   '/home/anand/venvs/kent/lib/python3.6/site-packages/numpy/lib/nanfunctions.py',
   'PYMODULE'),
  ('numpy.lib.mixins',
   '/home/anand/venvs/kent/lib/python3.6/site-packages/numpy/lib/mixins.py',
   'PYMODULE'),
  ('numpy.lib.info',
   '/home/anand/venvs/kent/lib/python3.6/site-packages/numpy/lib/info.py',
   'PYMODULE'),
  ('numpy.compat',
   '/home/anand/venvs/kent/lib/python3.6/site-packages/numpy/compat/__init__.py',
   'PYMODULE'),
  ('numpy.core',
   '/home/anand/venvs/kent/lib/python3.6/site-packages/numpy/core/__init__.py',
   'PYMODULE'),
  ('numpy.core._dtype_ctypes',
   '/home/anand/venvs/kent/lib/python3.6/site-packages/numpy/core/_dtype_ctypes.py',
   'PYMODULE'),
  ('numpy.core._add_newdocs',
   '/home/anand/venvs/kent/lib/python3.6/site-packages/numpy/core/_add_newdocs.py',
   'PYMODULE'),
  ('numpy.core.einsumfunc',
   '/home/anand/venvs/kent/lib/python3.6/site-packages/numpy/core/einsumfunc.py',
   'PYMODULE'),
  ('numpy.core.memmap',
   '/home/anand/venvs/kent/lib/python3.6/site-packages/numpy/core/memmap.py',
   'PYMODULE'),
  ('numpy.core.defchararray',
   '/home/anand/venvs/kent/lib/python3.6/site-packages/numpy/core/defchararray.py',
   'PYMODULE'),
  ('numpy.core.info',
   '/home/anand/venvs/kent/lib/python3.6/site-packages/numpy/core/info.py',
   'PYMODULE'),
  ('numpy._distributor_init',
   '/home/anand/venvs/kent/lib/python3.6/site-packages/numpy/_distributor_init.py',
   'PYMODULE'),
  ('numpy.version',
   '/home/anand/venvs/kent/lib/python3.6/site-packages/numpy/version.py',
   'PYMODULE'),
  ('numpy.__config__',
   '/home/anand/venvs/kent/lib/python3.6/site-packages/numpy/__config__.py',
   'PYMODULE'),
  ('numpy._globals',
   '/home/anand/venvs/kent/lib/python3.6/site-packages/numpy/_globals.py',
   'PYMODULE'),
  ('pygame.sndarray',
   '/home/anand/venvs/kent/lib/python3.6/site-packages/pygame/sndarray.py',
   'PYMODULE'),
  ('pygame._numpysndarray',
   '/home/anand/venvs/kent/lib/python3.6/site-packages/pygame/_numpysndarray.py',
   'PYMODULE'),
  ('pygame.surfarray',
   '/home/anand/venvs/kent/lib/python3.6/site-packages/pygame/surfarray.py',
   'PYMODULE'),
  ('pygame._numpysurfarray',
   '/home/anand/venvs/kent/lib/python3.6/site-packages/pygame/_numpysurfarray.py',
   'PYMODULE'),
  ('pygame.sysfont',
   '/home/anand/venvs/kent/lib/python3.6/site-packages/pygame/sysfont.py',
   'PYMODULE'),
  ('xml.etree.ElementTree',
   '/usr/lib/python3.6/xml/etree/ElementTree.py',
   'PYMODULE'),
  ('xml.etree.cElementTree',
   '/usr/lib/python3.6/xml/etree/cElementTree.py',
   'PYMODULE'),
  ('xml.etree.ElementInclude',
   '/usr/lib/python3.6/xml/etree/ElementInclude.py',
   'PYMODULE'),
  ('xml.etree.ElementPath',
   '/usr/lib/python3.6/xml/etree/ElementPath.py',
   'PYMODULE'),
  ('xml.etree', '/usr/lib/python3.6/xml/etree/__init__.py', 'PYMODULE'),
  ('pygame.ftfont',
   '/home/anand/venvs/kent/lib/python3.6/site-packages/pygame/ftfont.py',
   'PYMODULE'),
  ('pygame.threads',
   '/home/anand/venvs/kent/lib/python3.6/site-packages/pygame/threads/__init__.py',
   'PYMODULE'),
  ('pygame.sprite',
   '/home/anand/venvs/kent/lib/python3.6/site-packages/pygame/sprite.py',
   'PYMODULE'),
  ('pygame.cursors',
   '/home/anand/venvs/kent/lib/python3.6/site-packages/pygame/cursors.py',
   'PYMODULE'),
  ('pygame.compat',
   '/home/anand/venvs/kent/lib/python3.6/site-packages/pygame/compat.py',
   'PYMODULE'),
  ('pygame.version',
   '/home/anand/venvs/kent/lib/python3.6/site-packages/pygame/version.py',
   'PYMODULE'),
  ('tkinter.messagebox',
   '/usr/lib/python3.6/tkinter/messagebox.py',
   'PYMODULE'),
  ('tkinter', '/usr/lib/python3.6/tkinter/__init__.py', 'PYMODULE'),
  ('tkinter.constants', '/usr/lib/python3.6/tkinter/constants.py', 'PYMODULE')])
